 [["2007-07-01 00:00:00", "2007-07-31 00:00:00", [109.0000, 4], [113.0500, 4], [100.3300, 4], [105.5000, 4], [31329751050.7000, 4]], 
  ["2007-08-01 00:00:00", "2007-08-31 00:00:00", [102.7800, 4], [103.8900, 4], [88.3100, 4], [97.3900, 4], [95214468140.2200, 4]], 
  ["2007-09-01 00:00:00", "2007-09-30 00:00:00", [97.8000, 4], [103.8000, 4], [93.2000, 4], [103.5000, 4], [79388376595.9500, 4]], 
  ["2007-10-01 00:00:00", "2007-10-31 00:00:00", [102.8000, 4], [110.3800, 4], [100.2000, 4], [106.4800, 4], [144012351510.2500, 4]], 
  ["2007-11-01 00:00:00", "2007-11-30 00:00:00", [107.5100, 4], [107.7800, 4], [96.8000, 4], [103.7400, 4], [102699529458.4600, 4]], 
  ["2007-12-01 00:00:00", "2007-12-31 00:00:00", [103.9000, 4], [109.5100, 4], [101.8300, 4], [102.0000, 4], [91259575595.7600, 4]], 
  ["2008-01-01 00:00:00", "2008-01-31 00:00:00", [101.9800, 4], [106.6000, 4], [75.0100, 4], [87.8900, 4], [108115687947.0500, 4]], 
  ["2008-02-01 00:00:00", "2008-02-29 00:00:00", [90.8800, 4], [92.9000, 4], [79.6200, 4], [80.2000, 4], [128602820111.8400, 4]], 
  ["2008-03-01 00:00:00", "2008-03-31 00:00:00", [78.2000, 4], [80.6500, 4], [71.1100, 4], [73.4800, 4], [152794136650.0000, 4]], 
  ["2008-04-01 00:00:00", "2008-04-30 00:00:00", [73.5000, 4], [79.6700, 4], [72.7300, 4], [77.1000, 4], [179647654040.3700, 4]], 
  ["2008-05-01 00:00:00", "2008-05-31 00:00:00", [77.7700, 4], [88.8700, 4], [77.7700, 4], [85.2000, 4], [178565563192.1100, 4]], 
  ["2008-06-01 00:00:00", "2008-06-30 00:00:00", [85.1700, 4], [85.4900, 4], [73.9200, 4], [74.2900, 4], [107448370093.2100, 4]], 
  ["2008-07-01 00:00:00", "2008-07-31 00:00:00", [74.1000, 4], [77.8500, 4], [66.0100, 4], [69.0900, 4], [179856048900.0400, 4]], 
  ["2008-08-01 00:00:00", "2008-08-31 00:00:00", [68.0600, 4], [69.7300, 4], [51.0000, 4], [57.4000, 4], [154318729227.9500, 4]], 
  ["2008-09-01 00:00:00", "2008-09-30 00:00:00", [56.3100, 4], [61.8900, 4], [26.3100, 4], [43.6900, 4], [150761781235.4000, 4]], 
  ["2008-10-01 00:00:00", "2008-10-31 00:00:00", [44.8900, 4], [44.9900, 4], [16.7700, 4], [27.7700, 4], [107557931002.9000, 4]], 
  ["2008-11-01 00:00:00", "2008-11-30 00:00:00", [28.6000, 4], [34.3000, 4], [21.1000, 4], [23.2100, 4], [100473738672.5000, 4]], 
  ["2008-12-01 00:00:00", "2008-12-31 00:00:00", [23.1900, 4], [24.0000, 4], [20.0100, 4], [23.0000, 4], [75445722507.2500, 4]], 
  ["2009-01-01 00:00:00", "2009-01-31 00:00:00", [23.4000, 4], [23.4500, 4], [14.1500, 4], [16.4400, 4], [53975655656.4800, 4]], 
  ["2009-02-01 00:00:00", "2009-02-28 00:00:00", [16.2700, 4], [19.5300, 4], [13.5000, 4], [14.2700, 4], [123566155245.3900, 4]], 
  ["2009-03-01 00:00:00", "2009-03-31 00:00:00", [13.8000, 4], [26.8900, 4], [13.7500, 4], [20.8500, 4], [287627445445.6700, 4]], 
  ["2009-04-01 00:00:00", "2009-04-30 00:00:00", [20.9800, 4], [29.9400, 4], [20.2600, 4], [27.8000, 4], [389395981991.3000, 4]], 
  ["2009-05-01 00:00:00", "2009-05-31 00:00:00", [28.4000, 4], [44.5300, 4], [28.0600, 4], [44.1300, 4], [441457251889.0300, 4]], 
  ["2009-06-01 00:00:00", "2009-06-30 00:00:00", [45.9000, 4], [56.9000, 4], [31.1900, 4], [38.0800, 4], [667723150694.0900, 4]], 
  ["2009-07-01 00:00:00", "2009-07-31 00:00:00", [38.5300, 4], [43.4500, 4], [32.5000, 4], [42.3900, 4], [473254481157.1400, 4]], 
  ["2009-08-01 00:00:00", "2009-08-31 00:00:00", [43.1200, 4], [50.0700, 4], [43.0900, 4], [47.4500, 4], [542633266263.1300, 4]], 
  ["2009-09-01 00:00:00", "2009-09-30 00:00:00", [47.8100, 4], [63.2900, 4], [47.7100, 4], [59.8500, 4], [561173368371.7300, 4]], 
  ["2009-10-01 00:00:00", "2009-10-31 00:00:00", [60.4800, 4], [72.2900, 4], [55.6600, 4], [64.6100, 4], [606209811952.9900, 4]], 
  ["2009-11-01 00:00:00", "2009-11-30 00:00:00", [64.0600, 4], [74.8900, 4], [61.7500, 4], [69.2100, 4], [436165989349.5000, 4]], 
  ["2009-12-01 00:00:00", "2009-12-31 00:00:00", [69.9300, 4], [84.4000, 4], [69.4200, 4], [83.6500, 4], [329654012023.0900, 4]], 
  ["2010-01-01 00:00:00", "2010-01-31 00:00:00", [86.5600, 4], [92.4900, 4], [84.1000, 4], [88.4100, 4], [239381056322.4100, 4]], 
  ["2010-02-01 00:00:00", "2010-02-28 00:00:00", [87.6000, 4], [89.8000, 4], [73.2300, 4], [76.3000, 4], [325980498458.0500, 4]], 
  ["2010-03-01 00:00:00", "2010-03-31 00:00:00", [77.0000, 4], [90.9200, 4], [76.7100, 4], [85.8000, 4], [409370025516.5500, 4]], 
  ["2010-04-01 00:00:00", "2010-04-30 00:00:00", [86.4000, 4], [90.2700, 4], [77.8200, 4], [78.6000, 4], [280373478861.3900, 4]], 
  ["2010-05-01 00:00:00", "2010-05-31 00:00:00", [79.2000, 4], [84.7300, 4], [63.8100, 4], [71.0000, 4], [448417794040.0500, 4]], 
  ["2010-06-01 00:00:00", "2010-06-30 00:00:00", [70.4000, 4], [84.5600, 4], [67.4000, 4], [76.5000, 4], [384388466627.8000, 4]], 
  ["2010-07-01 00:00:00", "2010-07-31 00:00:00", [75.0100, 4], [86.7000, 4], [71.5000, 4], [84.5600, 4], [380495419796.4300, 4]], 
  ["2010-08-01 00:00:00", "2010-08-31 00:00:00", [85.4000, 4], [86.9000, 4], [73.5500, 4], [78.3100, 4], [283070840955.7700, 4]], 
  ["2010-09-01 00:00:00", "2010-09-30 00:00:00", [78.5500, 4], [86.1500, 4], [77.6000, 4], [86.0800, 4], [273131949944.1200, 4]], 
  ["2010-10-01 00:00:00", "2010-10-31 00:00:00", [85.9000, 4], [104.4400, 4], [85.7200, 4], [101.3600, 4], [383136815199.0500, 4]], 
  ["2010-11-01 00:00:00", "2010-11-30 00:00:00", [102.3700, 4], [106.4700, 4], [94.7400, 4], [101.5100, 4], [370730751695.2100, 4]], 
  ["2010-12-01 00:00:00", "2010-12-31 00:00:00", [102.1100, 4], [108.9000, 4], [101.6000, 4], [104.1800, 4], [302758911988.1500, 4]], 
  ["2011-01-01 00:00:00", "2011-01-31 00:00:00", [105.0000, 4], [110.9500, 4], [102.5000, 4], [105.9000, 4], [253565021521.0200, 4]], 
  ["2011-02-01 00:00:00", "2011-02-28 00:00:00", [106.4500, 4], [107.3500, 4], [95.5000, 4], [102.1000, 4], [353562097953.7900, 4]], 
  ["2011-03-01 00:00:00", "2011-03-31 00:00:00", [102.5000, 4], [107.9500, 4], [93.7100, 4], [106.6500, 4], [435005642631.5000, 4]], 
  ["2011-04-01 00:00:00", "2011-04-29 00:00:00", [106.7700, 4], [109.7600, 4], [99.2600, 4], [100.0000, 4], [320827934719.2000, 4]], 
  ["2011-05-01 00:00:00", "2011-05-31 00:00:00", [99.9000, 4], [100.1700, 4], [91.5000, 4], [97.5900, 4], [279537936000.6000, 4]], 
  ["2011-06-01 00:00:00", "2011-06-30 00:00:00", [98.0000, 4], [100.2500, 4], [93.2600, 4], [100.0000, 4], [263260278173.5000, 4]], 
  ["2011-07-01 00:00:00", "2011-07-29 00:00:00", [100.0100, 4], [107.7000, 4], [99.8400, 4], [101.7500, 4], [360935415182.0000, 4]], 
  ["2011-08-01 00:00:00", "2011-08-31 00:00:00", [103.1000, 4], [104.1000, 4], [75.5800, 4], [84.9300, 4], [577944197773.7000, 4]], 
  ["2011-09-01 00:00:00", "2011-09-30 00:00:00", [84.7000, 4], [85.6000, 4], [66.0200, 4], [70.4400, 4], [532704696206.3000, 4]], 
  ["2011-10-01 00:00:00", "2011-10-31 00:00:00", [68.4000, 4], [86.9500, 4], [60.9100, 4], [81.8800, 4], [680772008882.9000, 4]], 
  ["2011-11-01 00:00:00", "2011-11-30 00:00:00", [80.7200, 4], [87.6900, 4], [73.7500, 4], [87.5500, 4], [586705150088.3000, 4]], 
  ["2011-12-01 00:00:00", "2011-12-31 00:00:00", [88.6300, 4], [91.2800, 4], [77.2000, 4], [79.4000, 4], [439683413439.5000, 4]], 
  ["2012-01-01 00:00:00", "2012-01-31 00:00:00", [80.1200, 4], [91.2800, 4], [80.1200, 4], [90.1700, 4], [341564901003.4000, 4]], 
  ["2012-02-01 00:00:00", "2012-02-29 00:00:00", [89.7200, 4], [100.4000, 4], [89.1700, 4], [100.1900, 4], [336192140395.5000, 4]], 
  ["2012-03-01 00:00:00", "2012-03-31 00:00:00", [99.4800, 4], [103.8500, 4], [93.4000, 4], [94.8600, 4], [369618515841.2000, 4]], 
  ["2012-04-01 00:00:00", "2012-04-30 00:00:00", [95.4000, 4], [98.2300, 4], [91.1400, 4], [93.9500, 4], [282681317012.4000, 4]], 
  ["2012-05-01 00:00:00", "2012-05-31 00:00:00", [94.4700, 4], [95.6900, 4], [75.3000, 4], [81.6900, 4], [314513058793.0000, 4]], 
  ["2012-06-01 00:00:00", "2012-06-30 00:00:00", [81.6000, 4], [87.2600, 4], [76.2500, 4], [86.3900, 4], [215271803950.6000, 4]], 
  ["2012-07-01 00:00:00", "2012-07-31 00:00:00", [86.1700, 4], [92.9000, 4], [83.0100, 4], [89.7300, 4], [229940009726.4000, 4]], 
  ["2012-08-01 00:00:00", "2012-08-31 00:00:00", [89.5000, 4], [95.4800, 4], [87.4000, 4], [93.1600, 4], [226219610843.1000, 4]], 
  ["2012-09-01 00:00:00", "2012-09-30 00:00:00", [93.2000, 4], [98.0900, 4], [89.4500, 4], [90.9900, 4], [240285674739.0000, 4]], 
  ["2012-10-01 00:00:00", "2012-10-31 00:00:00", [90.6100, 4], [94.3800, 4], [90.6100, 4], [91.7900, 4], [155737431665.7000, 4]], 
  ["2012-11-01 00:00:00", "2012-11-30 00:00:00", [91.6000, 4], [92.6400, 4], [83.7500, 4], [91.4100, 4], [152364064878.5000, 4]], 
  ["2012-12-01 00:00:00", "2012-12-31 00:00:00", [91.4100, 4], [96.0300, 4], [90.8400, 4], [92.9400, 4], [111268201571.7000, 4]], 
  ["2013-01-01 00:00:00", "2013-01-31 00:00:00", [96.5000, 4], [109.6400, 4], [96.1200, 4], [109.5900, 4], [178022057839.7000, 4]], 
  ["2013-02-01 00:00:00", "2013-02-28 00:00:00", [109.5400, 4], [111.5000, 4], [102.8500, 4], [104.5700, 4], [172645521816.5000, 4]], 
  ["2013-03-01 00:00:00", "2013-03-29 00:00:00", [104.0000, 4], [107.4800, 4], [95.3500, 4], [98.8600, 4], [171861639550.9000, 4]], 
  ["2013-04-01 00:00:00", "2013-04-30 00:00:00", [98.2500, 4], [103.7400, 4], [93.7000, 4], [99.1100, 4], [154534588797.4000, 4]], 
  ["2013-05-01 00:00:00", "2013-05-31 00:00:00", [98.0500, 4], [111.4400, 4], [97.7500, 4], [99.0500, 4], [157318980580.5000, 4]], 
  ["2013-06-01 00:00:00", "2013-06-30 00:00:00", [97.7900, 4], [101.5000, 4], [88.5400, 4], [93.6800, 4], [151642756657.7000, 4]], 
  ["2013-07-01 00:00:00", "2013-07-31 00:00:00", [93.8300, 4], [101.5000, 4], [90.7500, 4], [95.2300, 4], [165727139356.6000, 4]], 
  ["2013-08-01 00:00:00", "2013-08-31 00:00:00", [95.9600, 4], [98.2500, 4], [87.7500, 4], [88.2300, 4], [132014262963.3000, 4]], 
  ["2013-09-01 00:00:00", "2013-09-30 00:00:00", [88.9600, 4], [103.6300, 4], [88.5300, 4], [97.8600, 4], [187082439708.9000, 4]], 
  ["2013-10-01 00:00:00", "2013-10-31 00:00:00", [97.8000, 4], [105.9500, 4], [97.2700, 4], [102.7400, 4], [198146721326.3000, 4]], 
  ["2013-11-01 00:00:00", "2013-11-29 00:00:00", [102.7400, 4], [106.8000, 4], [101.1100, 4], [103.0700, 4], [172269611533.6000, 4]], 
  ["2013-12-01 00:00:00", "2013-12-31 00:00:00", [103.1600, 4], [103.6600, 4], [97.8800, 4], [101.1700, 4], [157000202174.2000, 4]], 
  ["2014-01-01 00:00:00", "2014-01-31 00:00:00", [100.2000, 4], [102.9200, 4], [94.4000, 4], [94.7000, 4], [141433352988.1000, 4]], 
  ["2014-02-01 00:00:00", "2014-02-28 00:00:00", [94.9500, 4], [98.0800, 4], [88.8700, 4], [91.1600, 4], [142560212200.2000, 4]], 
  ["2014-03-01 00:00:00", "2014-03-31 00:00:00", [85.4300, 4], [86.8400, 4], [65.3300, 4], [83.5800, 4], [387221589866.4001, 4]], 
  ["2014-04-01 00:00:00", "2014-04-11 00:00:00", [84.0200, 4], [84.6800, 4], [77.6500, 4], [79.9000, 4], [117554755112.4000, 4]]]