 [["2014-04-08 18:05:00", "2014-04-08 18:09:59", [79.2600, 4], [79.3700, 4], [79.1400, 4], [79.2100, 4], [74921357.7000, 4]], 
  ["2014-04-08 18:10:00", "2014-04-08 18:14:59", [79.2200, 4], [79.2700, 4], [79.0500, 4], [79.1900, 4], [166188268.0000, 4]], 
  ["2014-04-08 18:15:00", "2014-04-08 18:19:59", [79.1900, 4], [79.3100, 4], [79.1600, 4], [79.2300, 4], [74937749.8000, 4]], 
  ["2014-04-08 18:20:00", "2014-04-08 18:24:59", [79.2300, 4], [79.3800, 4], [79.1100, 4], [79.2000, 4], [149746352.2000, 4]], 
  ["2014-04-08 18:25:00", "2014-04-08 18:29:59", [79.1900, 4], [79.2600, 4], [79.1500, 4], [79.1800, 4], [150676251.8000, 4]], 
  ["2014-04-08 18:30:00", "2014-04-08 18:34:59", [79.1800, 4], [79.4200, 4], [79.1100, 4], [79.4000, 4], [179925261.2000, 4]], 
  ["2014-04-08 18:35:00", "2014-04-08 18:39:59", [79.4000, 4], [79.6600, 4], [79.3500, 4], [79.6000, 4], [500239659.6000, 4]], 
  ["2014-04-09 10:00:00", "2014-04-09 10:04:59", [79.8100, 4], [80.1000, 4], [79.5200, 4], [79.5500, 4], [316896124.9000, 4]], 
  ["2014-04-09 10:05:00", "2014-04-09 10:09:59", [79.5500, 4], [79.6500, 4], [79.3000, 4], [79.3100, 4], [186610280.2000, 4]], 
  ["2014-04-09 10:10:00", "2014-04-09 10:14:59", [79.3000, 4], [79.4700, 4], [79.1000, 4], [79.3800, 4], [446781498.1000, 4]], 
  ["2014-04-09 10:15:00", "2014-04-09 10:15:57", [79.3800, 4], [79.4800, 4], [79.3500, 4], [79.4700, 4], [16658466.8000, 4]], 
  ["2014-04-09 10:20:00", "2014-04-09 10:24:59", [79.5300, 4], [79.6100, 4], [79.4100, 4], [79.4300, 4], [49630746.0000, 4]], 
  ["2014-04-09 10:25:00", "2014-04-09 10:29:59", [79.4800, 4], [79.5400, 4], [79.2500, 4], [79.2500, 4], [95432061.3000, 4]], 
  ["2014-04-09 10:30:00", "2014-04-09 10:34:59", [79.2600, 4], [79.2600, 4], [78.9100, 4], [79.1500, 4], [388460026.6000, 4]], 
  ["2014-04-09 10:35:00", "2014-04-09 10:39:59", [79.1400, 4], [79.1700, 4], [79.0500, 4], [79.1300, 4], [41508952.2000, 4]], 
  ["2014-04-09 10:40:00", "2014-04-09 10:44:59", [79.1600, 4], [79.2500, 4], [79.0900, 4], [79.1000, 4], [72576624.1000, 4]], 
  ["2014-04-09 10:45:00", "2014-04-09 10:49:59", [79.1400, 4], [79.2000, 4], [79.0300, 4], [79.1000, 4], [38464335.9000, 4]], 
  ["2014-04-09 10:50:00", "2014-04-09 10:54:59", [79.1000, 4], [79.1800, 4], [79.0300, 4], [79.0700, 4], [33213452.9000, 4]], 
  ["2014-04-09 10:55:00", "2014-04-09 10:59:59", [79.0800, 4], [79.2000, 4], [79.0500, 4], [79.1900, 4], [29720813.0000, 4]], 
  ["2014-04-09 11:00:00", "2014-04-09 11:04:59", [79.1800, 4], [79.3000, 4], [79.0900, 4], [79.1700, 4], [87658112.1000, 4]], 
  ["2014-04-09 11:05:00", "2014-04-09 11:09:59", [79.1800, 4], [79.2400, 4], [78.9500, 4], [78.9800, 4], [209789582.0000, 4]], 
  ["2014-04-09 11:10:00", "2014-04-09 11:14:59", [78.9800, 4], [79.0100, 4], [78.6300, 4], [78.8700, 4], [352884327.3000, 4]], 
  ["2014-04-09 11:15:00", "2014-04-09 11:19:59", [78.8700, 4], [79.1200, 4], [78.8400, 4], [79.1000, 4], [192331149.1000, 4]], 
  ["2014-04-09 11:20:00", "2014-04-09 11:24:59", [79.1000, 4], [79.1900, 4], [78.9300, 4], [78.9400, 4], [117273475.3000, 4]], 
  ["2014-04-09 11:25:00", "2014-04-09 11:29:59", [78.9700, 4], [79.0100, 4], [78.8600, 4], [79.0000, 4], [37209138.8000, 4]], 
  ["2014-04-09 11:30:00", "2014-04-09 11:34:59", [78.9900, 4], [79.0300, 4], [78.8800, 4], [78.9900, 4], [60744949.8000, 4]], 
  ["2014-04-09 11:35:00", "2014-04-09 11:39:59", [78.9600, 4], [79.0500, 4], [78.9300, 4], [79.0400, 4], [92512790.0000, 4]], 
  ["2014-04-09 11:40:00", "2014-04-09 11:44:59", [79.0400, 4], [79.1600, 4], [79.0000, 4], [79.1000, 4], [48302753.2000, 4]], 
  ["2014-04-09 11:45:00", "2014-04-09 11:49:59", [79.0900, 4], [79.1200, 4], [78.9600, 4], [79.0900, 4], [73592290.7000, 4]], 
  ["2014-04-09 11:50:00", "2014-04-09 11:54:59", [79.0900, 4], [79.1500, 4], [79.0300, 4], [79.0500, 4], [21275209.0000, 4]], 
  ["2014-04-09 11:55:00", "2014-04-09 11:59:59", [79.0500, 4], [79.0600, 4], [79.0000, 4], [79.0100, 4], [29494638.8000, 4]], 
  ["2014-04-09 12:00:00", "2014-04-09 12:04:59", [79.0100, 4], [79.1100, 4], [78.9400, 4], [78.9600, 4], [80973257.0000, 4]], 
  ["2014-04-09 12:05:00", "2014-04-09 12:09:59", [78.9800, 4], [79.1400, 4], [78.9500, 4], [79.1100, 4], [132495059.8000, 4]], 
  ["2014-04-09 12:10:00", "2014-04-09 12:14:59", [79.1100, 4], [79.1500, 4], [79.0500, 4], [79.0700, 4], [69040694.9000, 4]], 
  ["2014-04-09 12:15:00", "2014-04-09 12:19:59", [79.0700, 4], [79.0800, 4], [78.9200, 4], [78.9200, 4], [76241323.1000, 4]], 
  ["2014-04-09 12:20:00", "2014-04-09 12:24:59", [78.9200, 4], [78.9600, 4], [78.7500, 4], [78.9600, 4], [126229488.2000, 4]], 
  ["2014-04-09 12:25:00", "2014-04-09 12:29:59", [78.9700, 4], [79.0200, 4], [78.7300, 4], [78.7700, 4], [113895487.5000, 4]], 
  ["2014-04-09 12:30:00", "2014-04-09 12:34:59", [78.7600, 4], [78.8500, 4], [78.6500, 4], [78.7000, 4], [161369750.2000, 4]], 
  ["2014-04-09 12:35:00", "2014-04-09 12:39:59", [78.7100, 4], [78.7100, 4], [78.0000, 4], [78.0500, 4], [765102763.5000, 4]], 
  ["2014-04-09 12:40:00", "2014-04-09 12:44:59", [78.0400, 4], [78.2500, 4], [77.8600, 4], [77.8600, 4], [355174885.7000, 4]], 
  ["2014-04-09 12:45:00", "2014-04-09 12:49:59", [77.8600, 4], [78.0900, 4], [77.7700, 4], [77.8000, 4], [286575553.1000, 4]], 
  ["2014-04-09 12:50:00", "2014-04-09 12:54:59", [77.8000, 4], [78.2500, 4], [77.7600, 4], [78.1500, 4], [252992526.2000, 4]], 
  ["2014-04-09 12:55:00", "2014-04-09 12:59:59", [78.1500, 4], [78.1500, 4], [77.8300, 4], [77.9400, 4], [149283690.8000, 4]], 
  ["2014-04-09 13:00:00", "2014-04-09 13:04:59", [77.9100, 4], [78.0900, 4], [77.9000, 4], [78.0700, 4], [124468295.6000, 4]], 
  ["2014-04-09 13:05:00", "2014-04-09 13:09:59", [78.0600, 4], [78.1500, 4], [77.9800, 4], [78.0200, 4], [74334307.3000, 4]], 
  ["2014-04-09 13:10:00", "2014-04-09 13:14:59", [78.0300, 4], [78.0400, 4], [77.8100, 4], [77.8600, 4], [132450036.0000, 4]], 
  ["2014-04-09 13:15:00", "2014-04-09 13:19:59", [77.9000, 4], [78.0300, 4], [77.8500, 4], [77.9200, 4], [72923329.3000, 4]], 
  ["2014-04-09 13:20:00", "2014-04-09 13:24:59", [77.9100, 4], [78.0000, 4], [77.7500, 4], [78.0000, 4], [173506759.9000, 4]], 
  ["2014-04-09 13:25:00", "2014-04-09 13:29:59", [78.0000, 4], [78.2800, 4], [77.8800, 4], [78.1000, 4], [174999534.6000, 4]], 
  ["2014-04-09 13:30:00", "2014-04-09 13:34:59", [78.1200, 4], [78.2300, 4], [78.0000, 4], [78.0700, 4], [73799787.9000, 4]], 
  ["2014-04-09 13:35:00", "2014-04-09 13:39:59", [78.0800, 4], [78.2000, 4], [78.0100, 4], [78.1800, 4], [184336919.7000, 4]], 
  ["2014-04-09 13:40:00", "2014-04-09 13:44:59", [78.1400, 4], [78.3100, 4], [78.1100, 4], [78.3100, 4], [64040127.4000, 4]], 
  ["2014-04-09 13:45:00", "2014-04-09 13:49:59", [78.3100, 4], [78.3200, 4], [78.0500, 4], [78.2300, 4], [85724312.9000, 4]], 
  ["2014-04-09 13:50:00", "2014-04-09 13:54:59", [78.2300, 4], [78.2500, 4], [78.0800, 4], [78.1800, 4], [67091783.9000, 4]], 
  ["2014-04-09 13:55:00", "2014-04-09 13:59:59", [78.1800, 4], [78.2500, 4], [78.1200, 4], [78.2500, 4], [40631103.4000, 4]], 
  ["2014-04-09 14:00:00", "2014-04-09 14:04:59", [78.2500, 4], [78.2500, 4], [77.9200, 4], [78.0400, 4], [141751819.3000, 4]], 
  ["2014-04-09 14:05:00", "2014-04-09 14:09:59", [78.0500, 4], [78.1200, 4], [77.9500, 4], [77.9800, 4], [65224677.4000, 4]], 
  ["2014-04-09 14:10:00", "2014-04-09 14:14:59", [77.9500, 4], [78.0000, 4], [77.8100, 4], [77.8800, 4], [171536662.1000, 4]], 
  ["2014-04-09 14:15:00", "2014-04-09 14:19:59", [77.8900, 4], [78.0000, 4], [77.8000, 4], [77.9700, 4], [67471715.0000, 4]], 
  ["2014-04-09 14:20:00", "2014-04-09 14:24:59", [77.9700, 4], [78.1000, 4], [77.9100, 4], [78.0500, 4], [49356409.3000, 4]], 
  ["2014-04-09 14:25:00", "2014-04-09 14:29:59", [78.0400, 4], [78.1200, 4], [78.0000, 4], [78.1200, 4], [43593651.5000, 4]], 
  ["2014-04-09 14:30:00", "2014-04-09 14:34:59", [78.1100, 4], [78.1900, 4], [78.1000, 4], [78.1100, 4], [63549212.4000, 4]], 
  ["2014-04-09 14:35:00", "2014-04-09 14:39:59", [78.1000, 4], [78.2000, 4], [78.0700, 4], [78.1800, 4], [38513084.9000, 4]], 
  ["2014-04-09 14:40:00", "2014-04-09 14:44:59", [78.1800, 4], [78.1900, 4], [78.0600, 4], [78.1000, 4], [20571949.5000, 4]], 
  ["2014-04-09 14:45:00", "2014-04-09 14:49:59", [78.1200, 4], [78.1200, 4], [78.0100, 4], [78.0600, 4], [40636244.3000, 4]], 
  ["2014-04-09 14:50:00", "2014-04-09 14:54:59", [78.0800, 4], [78.1700, 4], [78.0600, 4], [78.1400, 4], [23201076.5000, 4]], 
  ["2014-04-09 14:55:00", "2014-04-09 14:59:59", [78.1500, 4], [78.2900, 4], [78.1200, 4], [78.1400, 4], [85906032.5000, 4]], 
  ["2014-04-09 15:00:00", "2014-04-09 15:04:59", [78.1600, 4], [78.1800, 4], [78.1000, 4], [78.1500, 4], [34234720.2000, 4]], 
  ["2014-04-09 15:05:00", "2014-04-09 15:09:59", [78.1700, 4], [78.2300, 4], [78.1300, 4], [78.2100, 4], [25289085.8000, 4]], 
  ["2014-04-09 15:10:00", "2014-04-09 15:14:59", [78.2100, 4], [78.2500, 4], [78.1200, 4], [78.1800, 4], [36774677.0000, 4]], 
  ["2014-04-09 15:15:00", "2014-04-09 15:19:59", [78.1800, 4], [78.2400, 4], [78.1600, 4], [78.1600, 4], [28072373.1000, 4]], 
  ["2014-04-09 15:20:00", "2014-04-09 15:24:59", [78.1500, 4], [78.4100, 4], [78.1400, 4], [78.3500, 4], [207019747.3000, 4]], 
  ["2014-04-09 15:25:00", "2014-04-09 15:29:59", [78.3500, 4], [78.4100, 4], [78.2100, 4], [78.3800, 4], [64990561.7000, 4]], 
  ["2014-04-09 15:30:00", "2014-04-09 15:34:59", [78.3900, 4], [78.5300, 4], [78.3400, 4], [78.4200, 4], [241062103.3000, 4]], 
  ["2014-04-09 15:35:00", "2014-04-09 15:39:59", [78.4000, 4], [78.6600, 4], [78.4000, 4], [78.6000, 4], [231419704.9000, 4]], 
  ["2014-04-09 15:40:00", "2014-04-09 15:44:59", [78.5600, 4], [78.7200, 4], [78.4100, 4], [78.5400, 4], [199770808.8000, 4]], 
  ["2014-04-09 15:45:00", "2014-04-09 15:49:59", [78.5300, 4], [78.5400, 4], [78.3000, 4], [78.3500, 4], [58864253.3000, 4]], 
  ["2014-04-09 15:50:00", "2014-04-09 15:54:59", [78.3500, 4], [78.3600, 4], [78.0900, 4], [78.2100, 4], [206670016.0000, 4]], 
  ["2014-04-09 15:55:00", "2014-04-09 15:59:59", [78.2000, 4], [78.2300, 4], [78.1000, 4], [78.1000, 4], [100150420.1000, 4]], 
  ["2014-04-09 16:00:00", "2014-04-09 16:04:59", [78.1000, 4], [78.3700, 4], [78.1000, 4], [78.3500, 4], [87680732.2000, 4]], 
  ["2014-04-09 16:05:00", "2014-04-09 16:09:59", [78.3500, 4], [78.3500, 4], [78.1400, 4], [78.2000, 4], [68098145.1000, 4]], 
  ["2014-04-09 16:10:00", "2014-04-09 16:14:59", [78.1900, 4], [78.2000, 4], [78.0500, 4], [78.1400, 4], [75405597.3000, 4]], 
  ["2014-04-09 16:15:00", "2014-04-09 16:19:59", [78.1200, 4], [78.1500, 4], [78.0500, 4], [78.1000, 4], [44180444.6000, 4]], 
  ["2014-04-09 16:20:00", "2014-04-09 16:24:59", [78.1000, 4], [78.1400, 4], [78.0100, 4], [78.1400, 4], [116542348.4000, 4]], 
  ["2014-04-09 16:25:00", "2014-04-09 16:29:59", [78.1400, 4], [78.2300, 4], [78.0700, 4], [78.1000, 4], [41219664.7000, 4]], 
  ["2014-04-09 16:30:00", "2014-04-09 16:34:59", [78.1500, 4], [78.2400, 4], [78.0900, 4], [78.0900, 4], [46496101.4000, 4]], 
  ["2014-04-09 16:35:00", "2014-04-09 16:39:59", [78.1000, 4], [78.3600, 4], [78.0400, 4], [78.3000, 4], [73135977.2000, 4]], 
  ["2014-04-09 16:40:00", "2014-04-09 16:44:59", [78.3000, 4], [78.4500, 4], [78.3000, 4], [78.4500, 4], [90961228.5000, 4]], 
  ["2014-04-09 16:45:00", "2014-04-09 16:49:59", [78.4500, 4], [78.5600, 4], [78.3600, 4], [78.4100, 4], [110009458.6000, 4]], 
  ["2014-04-09 16:50:00", "2014-04-09 16:54:59", [78.4200, 4], [78.5300, 4], [78.3400, 4], [78.4300, 4], [51004110.4000, 4]], 
  ["2014-04-09 16:55:00", "2014-04-09 16:59:59", [78.4000, 4], [78.4400, 4], [78.2800, 4], [78.3100, 4], [54336470.3000, 4]], 
  ["2014-04-09 17:00:00", "2014-04-09 17:04:59", [78.3100, 4], [78.4600, 4], [78.3000, 4], [78.4000, 4], [31199850.9000, 4]], 
  ["2014-04-09 17:05:00", "2014-04-09 17:09:59", [78.3800, 4], [78.4900, 4], [78.3400, 4], [78.4500, 4], [33209790.1000, 4]], 
  ["2014-04-09 17:10:00", "2014-04-09 17:14:59", [78.4400, 4], [78.4500, 4], [78.2500, 4], [78.3700, 4], [77819806.6000, 4]], 
  ["2014-04-09 17:15:00", "2014-04-09 17:19:59", [78.3400, 4], [78.4100, 4], [78.2400, 4], [78.3700, 4], [50744229.1000, 4]], 
  ["2014-04-09 17:20:00", "2014-04-09 17:24:59", [78.3400, 4], [78.5700, 4], [78.3200, 4], [78.5000, 4], [97334687.4000, 4]], 
  ["2014-04-09 17:25:00", "2014-04-09 17:29:59", [78.5000, 4], [78.5700, 4], [78.5000, 4], [78.5600, 4], [60169584.0000, 4]], 
  ["2014-04-09 17:30:00", "2014-04-09 17:34:59", [78.5500, 4], [78.7900, 4], [78.3400, 4], [78.4200, 4], [329321211.2000, 4]], 
  ["2014-04-09 17:35:00", "2014-04-09 17:39:59", [78.4200, 4], [78.5700, 4], [78.3800, 4], [78.5100, 4], [142492915.5000, 4]], 
  ["2014-04-09 17:40:00", "2014-04-09 17:44:59", [78.5100, 4], [78.5700, 4], [78.5000, 4], [78.5000, 4], [118742771.5000, 4]], 
  ["2014-04-09 17:45:00", "2014-04-09 17:49:59", [78.5000, 4], [78.5000, 4], [78.1500, 4], [78.1500, 4], [243559065.8000, 4]], 
  ["2014-04-09 17:50:00", "2014-04-09 17:54:59", [78.1500, 4], [78.3400, 4], [78.1500, 4], [78.3000, 4], [81461328.2000, 4]], 
  ["2014-04-09 17:55:00", "2014-04-09 17:59:59", [78.3400, 4], [78.4100, 4], [78.2200, 4], [78.2500, 4], [50495678.0000, 4]], 
  ["2014-04-09 18:00:00", "2014-04-09 18:04:59", [78.2900, 4], [78.3000, 4], [78.1500, 4], [78.1700, 4], [62493571.5000, 4]], 
  ["2014-04-09 18:05:00", "2014-04-09 18:09:59", [78.1700, 4], [78.3900, 4], [78.1500, 4], [78.3500, 4], [94720625.5000, 4]], 
  ["2014-04-09 18:10:00", "2014-04-09 18:14:59", [78.3200, 4], [78.3700, 4], [78.2600, 4], [78.3500, 4], [49855927.0000, 4]], 
  ["2014-04-09 18:15:00", "2014-04-09 18:19:59", [78.3500, 4], [78.5100, 4], [78.3200, 4], [78.4600, 4], [76302276.6000, 4]], 
  ["2014-04-09 18:20:00", "2014-04-09 18:24:59", [78.4500, 4], [78.6400, 4], [78.4300, 4], [78.4900, 4], [198630643.3000, 4]], 
  ["2014-04-09 18:25:00", "2014-04-09 18:29:59", [78.4700, 4], [78.5000, 4], [78.3800, 4], [78.4300, 4], [71267260.8000, 4]], 
  ["2014-04-09 18:30:00", "2014-04-09 18:34:59", [78.4500, 4], [78.7100, 4], [78.4500, 4], [78.6500, 4], [217483741.9000, 4]], 
  ["2014-04-09 18:35:00", "2014-04-09 18:39:59", [78.6500, 4], [78.9300, 4], [78.6500, 4], [78.9000, 4], [466488811.2000, 4]], 
  ["2014-04-10 10:00:00", "2014-04-10 10:04:59", [79.2300, 4], [79.3900, 4], [78.7000, 4], [78.9200, 4], [704800918.3000, 4]], 
  ["2014-04-10 10:05:00", "2014-04-10 10:09:59", [78.9300, 4], [79.0000, 4], [78.6100, 4], [78.7700, 4], [301171892.6000, 4]], 
  ["2014-04-10 10:10:00", "2014-04-10 10:14:59", [78.7600, 4], [78.9400, 4], [78.6000, 4], [78.8400, 4], [122684327.9000, 4]], 
  ["2014-04-10 10:15:00", "2014-04-10 10:19:59", [78.8200, 4], [79.1100, 4], [78.8000, 4], [79.0900, 4], [211113047.0000, 4]], 
  ["2014-04-10 10:20:00", "2014-04-10 10:24:59", [79.1000, 4], [79.6700, 4], [79.1000, 4], [79.5300, 4], [375476913.0000, 4]], 
  ["2014-04-10 10:25:00", "2014-04-10 10:29:59", [79.5000, 4], [79.9300, 4], [79.4900, 4], [79.8000, 4], [323027662.8000, 4]], 
  ["2014-04-10 10:30:00", "2014-04-10 10:34:59", [79.8000, 4], [79.9300, 4], [79.5300, 4], [79.6800, 4], [221078897.9000, 4]], 
  ["2014-04-10 10:35:00", "2014-04-10 10:39:59", [79.6700, 4], [79.7800, 4], [79.4300, 4], [79.5300, 4], [161451278.1000, 4]], 
  ["2014-04-10 10:40:00", "2014-04-10 10:44:59", [79.5300, 4], [79.6700, 4], [79.3500, 4], [79.6700, 4], [161237398.0000, 4]], 
  ["2014-04-10 10:45:00", "2014-04-10 10:49:59", [79.6600, 4], [79.7200, 4], [79.6000, 4], [79.7200, 4], [115811235.1000, 4]], 
  ["2014-04-10 10:50:00", "2014-04-10 10:54:59", [79.7000, 4], [79.9400, 4], [79.6800, 4], [79.8400, 4], [203064384.3000, 4]], 
  ["2014-04-10 10:55:00", "2014-04-10 10:59:59", [79.8500, 4], [80.2800, 4], [79.8500, 4], [80.1500, 4], [563502565.0000, 4]], 
  ["2014-04-10 11:00:00", "2014-04-10 11:04:59", [80.1600, 4], [80.4400, 4], [80.0500, 4], [80.3000, 4], [487253646.3000, 4]], 
  ["2014-04-10 11:05:00", "2014-04-10 11:09:59", [80.3000, 4], [80.3200, 4], [79.9500, 4], [79.9800, 4], [157690170.2000, 4]], 
  ["2014-04-10 11:10:00", "2014-04-10 11:14:59", [80.0100, 4], [80.0500, 4], [79.6400, 4], [79.6800, 4], [265937571.2000, 4]], 
  ["2014-04-10 11:15:00", "2014-04-10 11:19:59", [79.6900, 4], [79.7800, 4], [79.6000, 4], [79.7800, 4], [231029891.3000, 4]], 
  ["2014-04-10 11:20:00", "2014-04-10 11:24:59", [79.7800, 4], [79.8900, 4], [79.7300, 4], [79.8800, 4], [80419900.0000, 4]], 
  ["2014-04-10 11:25:00", "2014-04-10 11:29:59", [79.8800, 4], [79.9300, 4], [79.8400, 4], [79.9100, 4], [86767952.4000, 4]], 
  ["2014-04-10 11:30:00", "2014-04-10 11:34:59", [79.9000, 4], [80.0800, 4], [79.9000, 4], [80.0000, 4], [116535812.5000, 4]], 
  ["2014-04-10 11:35:00", "2014-04-10 11:39:59", [80.0000, 4], [80.1100, 4], [79.9500, 4], [80.1000, 4], [99595122.7000, 4]], 
  ["2014-04-10 11:40:00", "2014-04-10 11:44:59", [80.1100, 4], [80.1500, 4], [79.9200, 4], [79.9900, 4], [118013839.0000, 4]], 
  ["2014-04-10 11:45:00", "2014-04-10 11:49:59", [80.0300, 4], [80.0700, 4], [79.8600, 4], [79.9300, 4], [86759152.2000, 4]], 
  ["2014-04-10 11:50:00", "2014-04-10 11:54:59", [79.9100, 4], [79.9600, 4], [79.7200, 4], [79.9100, 4], [102958957.4000, 4]], 
  ["2014-04-10 11:55:00", "2014-04-10 11:59:59", [79.9100, 4], [79.9700, 4], [79.8300, 4], [79.9700, 4], [51201378.8000, 4]], 
  ["2014-04-10 12:00:00", "2014-04-10 12:04:59", [79.9600, 4], [80.0100, 4], [79.7900, 4], [79.8500, 4], [90220710.4000, 4]], 
  ["2014-04-10 12:05:00", "2014-04-10 12:09:59", [79.8500, 4], [79.9000, 4], [79.6100, 4], [79.6600, 4], [218816664.2000, 4]], 
  ["2014-04-10 12:10:00", "2014-04-10 12:14:59", [79.6600, 4], [79.6800, 4], [79.5300, 4], [79.5900, 4], [191244599.2000, 4]], 
  ["2014-04-10 12:15:00", "2014-04-10 12:19:59", [79.5900, 4], [79.8200, 4], [79.5700, 4], [79.8000, 4], [59230235.4000, 4]], 
  ["2014-04-10 12:20:00", "2014-04-10 12:24:59", [79.8000, 4], [79.8600, 4], [79.6000, 4], [79.6000, 4], [65096330.9000, 4]], 
  ["2014-04-10 12:25:00", "2014-04-10 12:29:59", [79.6000, 4], [79.6900, 4], [79.5400, 4], [79.6500, 4], [31368658.7000, 4]], 
  ["2014-04-10 12:30:00", "2014-04-10 12:34:59", [79.6400, 4], [79.6900, 4], [79.5600, 4], [79.5700, 4], [30514415.5000, 4]], 
  ["2014-04-10 12:35:00", "2014-04-10 12:39:59", [79.5800, 4], [79.6800, 4], [79.5500, 4], [79.6000, 4], [39743343.5000, 4]], 
  ["2014-04-10 12:40:00", "2014-04-10 12:44:59", [79.6000, 4], [79.7000, 4], [79.5700, 4], [79.6400, 4], [24815689.9000, 4]], 
  ["2014-04-10 12:45:00", "2014-04-10 12:49:59", [79.6400, 4], [79.7300, 4], [79.6100, 4], [79.6200, 4], [70579047.3000, 4]], 
  ["2014-04-10 12:50:00", "2014-04-10 12:54:59", [79.6100, 4], [79.6200, 4], [79.5200, 4], [79.5400, 4], [72438827.2000, 4]], 
  ["2014-04-10 12:55:00", "2014-04-10 12:59:59", [79.5400, 4], [79.5500, 4], [79.3500, 4], [79.3900, 4], [310447540.8000, 4]], 
  ["2014-04-10 13:00:00", "2014-04-10 13:04:59", [79.3800, 4], [79.4000, 4], [79.0800, 4], [79.1600, 4], [359516414.8000, 4]], 
  ["2014-04-10 13:05:00", "2014-04-10 13:09:59", [79.1600, 4], [79.2700, 4], [78.8500, 4], [78.8900, 4], [280448956.4000, 4]], 
  ["2014-04-10 13:10:00", "2014-04-10 13:14:59", [78.8900, 4], [79.0900, 4], [78.8600, 4], [79.0400, 4], [110179964.9000, 4]], 
  ["2014-04-10 13:15:00", "2014-04-10 13:19:59", [79.0400, 4], [79.0600, 4], [78.7300, 4], [78.7700, 4], [206854968.3000, 4]], 
  ["2014-04-10 13:20:00", "2014-04-10 13:24:59", [78.8000, 4], [78.9000, 4], [78.5500, 4], [78.5600, 4], [231453100.5000, 4]], 
  ["2014-04-10 13:25:00", "2014-04-10 13:29:59", [78.5600, 4], [78.7700, 4], [78.5100, 4], [78.6300, 4], [204443597.2000, 4]], 
  ["2014-04-10 13:30:00", "2014-04-10 13:34:59", [78.5900, 4], [78.8300, 4], [78.5700, 4], [78.7800, 4], [98112158.5000, 4]], 
  ["2014-04-10 13:35:00", "2014-04-10 13:39:59", [78.7800, 4], [78.8500, 4], [78.7100, 4], [78.7600, 4], [55073584.1000, 4]], 
  ["2014-04-10 13:40:00", "2014-04-10 13:44:59", [78.7600, 4], [78.7700, 4], [78.6000, 4], [78.7200, 4], [63001358.0000, 4]], 
  ["2014-04-10 13:45:00", "2014-04-10 13:49:59", [78.7000, 4], [78.8400, 4], [78.6200, 4], [78.8100, 4], [36662888.5000, 4]], 
  ["2014-04-10 13:50:00", "2014-04-10 13:54:59", [78.8100, 4], [78.8200, 4], [78.7100, 4], [78.7900, 4], [24421795.3000, 4]], 
  ["2014-04-10 13:55:00", "2014-04-10 13:59:59", [78.7900, 4], [78.9500, 4], [78.7200, 4], [78.9300, 4], [85866002.9000, 4]], 
  ["2014-04-10 14:00:00", "2014-04-10 14:04:59", [78.9400, 4], [78.9600, 4], [78.7000, 4], [78.8400, 4], [83705977.5000, 4]], 
  ["2014-04-10 14:05:00", "2014-04-10 14:09:59", [78.8400, 4], [78.9000, 4], [78.7800, 4], [78.8600, 4], [31255702.9000, 4]], 
  ["2014-04-10 14:10:00", "2014-04-10 14:14:59", [78.8700, 4], [78.9700, 4], [78.8100, 4], [78.8600, 4], [52457716.0000, 4]], 
  ["2014-04-10 14:15:00", "2014-04-10 14:19:59", [78.8600, 4], [78.9800, 4], [78.8300, 4], [78.9200, 4], [54216974.7000, 4]], 
  ["2014-04-10 14:20:00", "2014-04-10 14:24:59", [78.9400, 4], [79.0700, 4], [78.9400, 4], [79.0400, 4], [46580846.4000, 4]], 
  ["2014-04-10 14:25:00", "2014-04-10 14:29:59", [79.0200, 4], [79.0500, 4], [78.8800, 4], [78.9100, 4], [38738481.2000, 4]], 
  ["2014-04-10 14:30:00", "2014-04-10 14:34:59", [78.9100, 4], [79.0600, 4], [78.9100, 4], [79.0100, 4], [32349091.8000, 4]], 
  ["2014-04-10 14:35:00", "2014-04-10 14:39:59", [79.0100, 4], [79.0700, 4], [78.9900, 4], [79.0400, 4], [15358163.6000, 4]], 
  ["2014-04-10 14:40:00", "2014-04-10 14:44:59", [79.0600, 4], [79.0700, 4], [78.8700, 4], [78.9400, 4], [35242126.6000, 4]], 
  ["2014-04-10 14:45:00", "2014-04-10 14:49:59", [78.9300, 4], [78.9800, 4], [78.8900, 4], [78.9100, 4], [15998530.2000, 4]], 
  ["2014-04-10 14:50:00", "2014-04-10 14:54:59", [78.9100, 4], [79.1000, 4], [78.9100, 4], [79.1000, 4], [36109946.1000, 4]], 
  ["2014-04-10 14:55:00", "2014-04-10 14:59:59", [79.0900, 4], [79.2300, 4], [79.0800, 4], [79.1400, 4], [140394547.9000, 4]], 
  ["2014-04-10 15:00:00", "2014-04-10 15:04:59", [79.1300, 4], [79.2700, 4], [79.1300, 4], [79.1300, 4], [72262070.8000, 4]], 
  ["2014-04-10 15:05:00", "2014-04-10 15:09:59", [79.1400, 4], [79.3300, 4], [79.1200, 4], [79.2500, 4], [97198353.7000, 4]], 
  ["2014-04-10 15:10:00", "2014-04-10 15:14:59", [79.2500, 4], [79.4000, 4], [79.2200, 4], [79.3700, 4], [76524510.3000, 4]], 
  ["2014-04-10 15:15:00", "2014-04-10 15:19:59", [79.3500, 4], [79.5400, 4], [79.3500, 4], [79.4100, 4], [188170642.2000, 4]], 
  ["2014-04-10 15:20:00", "2014-04-10 15:24:59", [79.4100, 4], [79.8500, 4], [79.4100, 4], [79.7700, 4], [358705684.2000, 4]], 
  ["2014-04-10 15:25:00", "2014-04-10 15:29:59", [79.7500, 4], [79.9300, 4], [79.6600, 4], [79.6900, 4], [268414891.8000, 4]], 
  ["2014-04-10 15:30:00", "2014-04-10 15:34:59", [79.6900, 4], [79.7500, 4], [79.5000, 4], [79.5600, 4], [94918003.1000, 4]], 
  ["2014-04-10 15:35:00", "2014-04-10 15:39:59", [79.5500, 4], [79.5800, 4], [79.2400, 4], [79.3000, 4], [175858644.6000, 4]], 
  ["2014-04-10 15:40:00", "2014-04-10 15:44:59", [79.3000, 4], [79.4300, 4], [79.2400, 4], [79.3400, 4], [70774388.9000, 4]], 
  ["2014-04-10 15:45:00", "2014-04-10 15:49:59", [79.3300, 4], [79.3700, 4], [79.1800, 4], [79.2400, 4], [112242469.9000, 4]], 
  ["2014-04-10 15:50:00", "2014-04-10 15:54:59", [79.2300, 4], [79.3700, 4], [79.2300, 4], [79.3200, 4], [38147863.6000, 4]], 
  ["2014-04-10 15:55:00", "2014-04-10 15:59:59", [79.3200, 4], [79.3600, 4], [79.2300, 4], [79.2300, 4], [32721299.9000, 4]], 
  ["2014-04-10 16:00:00", "2014-04-10 16:04:59", [79.2300, 4], [79.2700, 4], [79.0700, 4], [79.2500, 4], [116026385.6000, 4]], 
  ["2014-04-10 16:05:00", "2014-04-10 16:09:59", [79.2700, 4], [79.5000, 4], [79.2700, 4], [79.4000, 4], [84253289.3000, 4]], 
  ["2014-04-10 16:10:00", "2014-04-10 16:14:59", [79.3900, 4], [79.4000, 4], [79.2500, 4], [79.2800, 4], [106961927.9000, 4]], 
  ["2014-04-10 16:15:00", "2014-04-10 16:19:59", [79.3000, 4], [79.3000, 4], [79.1600, 4], [79.2300, 4], [155277159.1000, 4]], 
  ["2014-04-10 16:20:00", "2014-04-10 16:24:59", [79.2100, 4], [79.2400, 4], [79.0700, 4], [79.1100, 4], [88027493.5000, 4]], 
  ["2014-04-10 16:25:00", "2014-04-10 16:29:59", [79.1100, 4], [79.1800, 4], [79.0700, 4], [79.1800, 4], [32811729.6000, 4]], 
  ["2014-04-10 16:30:00", "2014-04-10 16:34:59", [79.1900, 4], [79.4800, 4], [79.1300, 4], [79.2800, 4], [92054036.2000, 4]], 
  ["2014-04-10 16:35:00", "2014-04-10 16:39:59", [79.2800, 4], [79.3800, 4], [79.2000, 4], [79.2900, 4], [36354504.5000, 4]], 
  ["2014-04-10 16:40:00", "2014-04-10 16:44:59", [79.3100, 4], [79.4100, 4], [79.2900, 4], [79.3500, 4], [34563485.5000, 4]], 
  ["2014-04-10 16:45:00", "2014-04-10 16:49:59", [79.3800, 4], [79.4000, 4], [79.2700, 4], [79.3200, 4], [29488788.0000, 4]], 
  ["2014-04-10 16:50:00", "2014-04-10 16:54:59", [79.3800, 4], [79.4800, 4], [79.3500, 4], [79.4200, 4], [47057348.9000, 4]], 
  ["2014-04-10 16:55:00", "2014-04-10 16:59:59", [79.4200, 4], [79.4500, 4], [79.3500, 4], [79.4500, 4], [17707439.2000, 4]], 
  ["2014-04-10 17:00:00", "2014-04-10 17:04:59", [79.4500, 4], [79.5500, 4], [79.3600, 4], [79.4400, 4], [87645789.8000, 4]], 
  ["2014-04-10 17:05:00", "2014-04-10 17:09:59", [79.4100, 4], [79.4100, 4], [79.2300, 4], [79.3100, 4], [47093764.4000, 4]], 
  ["2014-04-10 17:10:00", "2014-04-10 17:14:59", [79.3300, 4], [79.4400, 4], [79.2900, 4], [79.4100, 4], [22740201.7000, 4]], 
  ["2014-04-10 17:15:00", "2014-04-10 17:19:59", [79.4400, 4], [79.4700, 4], [79.3300, 4], [79.4200, 4], [45315758.1000, 4]], 
  ["2014-04-10 17:20:00", "2014-04-10 17:24:59", [79.4200, 4], [79.5200, 4], [79.4200, 4], [79.4600, 4], [33466493.6000, 4]], 
  ["2014-04-10 17:25:00", "2014-04-10 17:29:59", [79.4300, 4], [79.6100, 4], [79.4000, 4], [79.5600, 4], [67274937.6000, 4]], 
  ["2014-04-10 17:30:00", "2014-04-10 17:34:59", [79.5600, 4], [79.5700, 4], [79.3200, 4], [79.4000, 4], [92149365.8000, 4]], 
  ["2014-04-10 17:35:00", "2014-04-10 17:39:59", [79.3800, 4], [79.3800, 4], [79.1200, 4], [79.1600, 4], [185635359.2000, 4]], 
  ["2014-04-10 17:40:00", "2014-04-10 17:44:59", [79.1600, 4], [79.4900, 4], [79.1600, 4], [79.4600, 4], [145500405.1000, 4]], 
  ["2014-04-10 17:45:00", "2014-04-10 17:49:59", [79.4600, 4], [79.5600, 4], [79.4100, 4], [79.5300, 4], [162641808.9000, 4]], 
  ["2014-04-10 17:50:00", "2014-04-10 17:54:59", [79.5000, 4], [79.5000, 4], [79.3000, 4], [79.4400, 4], [116962664.3000, 4]], 
  ["2014-04-10 17:55:00", "2014-04-10 17:59:59", [79.3900, 4], [79.6600, 4], [79.3600, 4], [79.6600, 4], [256566541.6000, 4]], 
  ["2014-04-10 18:00:00", "2014-04-10 18:04:59", [79.6500, 4], [79.7000, 4], [79.5400, 4], [79.5500, 4], [141238658.7000, 4]], 
  ["2014-04-10 18:05:00", "2014-04-10 18:09:59", [79.5500, 4], [79.5700, 4], [79.4100, 4], [79.4500, 4], [86728983.3000, 4]], 
  ["2014-04-10 18:10:00", "2014-04-10 18:14:59", [79.4700, 4], [79.5400, 4], [79.4000, 4], [79.4500, 4], [106185700.1000, 4]], 
  ["2014-04-10 18:15:00", "2014-04-10 18:19:59", [79.4800, 4], [79.4800, 4], [79.3600, 4], [79.3600, 4], [61264840.1000, 4]], 
  ["2014-04-10 18:20:00", "2014-04-10 18:24:59", [79.3800, 4], [79.5500, 4], [79.3600, 4], [79.5100, 4], [150280161.7000, 4]], 
  ["2014-04-10 18:25:00", "2014-04-10 18:28:17", [79.5400, 4], [79.6800, 4], [79.5000, 4], [79.6600, 4], [160379827.5000, 4]], 
  ["2014-04-10 18:30:00", "2014-04-10 18:34:59", [79.6800, 4], [79.8500, 4], [79.5600, 4], [79.8000, 4], [253027565.5000, 4]], 
  ["2014-04-10 18:35:00", "2014-04-10 18:39:59", [79.8200, 4], [79.9900, 4], [79.7700, 4], [79.9100, 4], [486676352.8000, 4]], 
  ["2014-04-11 10:00:00", "2014-04-11 10:04:59", [78.7100, 4], [78.7200, 4], [77.6500, 4], [78.1500, 4], [789658108.3000, 4]], 
  ["2014-04-11 10:05:00", "2014-04-11 10:09:59", [78.1200, 4], [78.3500, 4], [77.9600, 4], [78.2500, 4], [367268358.6000, 4]], 
  ["2014-04-11 10:10:00", "2014-04-11 10:14:59", [78.2500, 4], [78.4300, 4], [78.2300, 4], [78.3500, 4], [148329244.9000, 4]], 
  ["2014-04-11 10:15:00", "2014-04-11 10:19:59", [78.3500, 4], [78.4700, 4], [78.2600, 4], [78.3200, 4], [154921743.0000, 4]], 
  ["2014-04-11 10:20:00", "2014-04-11 10:24:59", [78.3500, 4], [78.3800, 4], [78.2800, 4], [78.3700, 4], [40214921.7000, 4]], 
  ["2014-04-11 10:25:00", "2014-04-11 10:29:59", [78.3700, 4], [78.6000, 4], [78.3700, 4], [78.5000, 4], [204509244.9000, 4]], 
  ["2014-04-11 10:30:00", "2014-04-11 10:34:59", [78.4500, 4], [78.5000, 4], [78.4100, 4], [78.4200, 4], [40335001.0000, 4]], 
  ["2014-04-11 10:35:00", "2014-04-11 10:39:59", [78.4200, 4], [78.4800, 4], [78.3700, 4], [78.4100, 4], [38553336.8000, 4]], 
  ["2014-04-11 10:40:00", "2014-04-11 10:44:59", [78.4200, 4], [78.4600, 4], [78.3100, 4], [78.3600, 4], [62618606.3000, 4]], 
  ["2014-04-11 10:45:00", "2014-04-11 10:49:59", [78.3600, 4], [78.3700, 4], [78.2700, 4], [78.2800, 4], [54650689.4000, 4]], 
  ["2014-04-11 10:50:00", "2014-04-11 10:54:59", [78.2900, 4], [78.4200, 4], [78.1600, 4], [78.2200, 4], [153200563.2000, 4]], 
  ["2014-04-11 10:55:00", "2014-04-11 10:59:59", [78.2200, 4], [78.3900, 4], [78.2000, 4], [78.3500, 4], [106998416.6000, 4]], 
  ["2014-04-11 11:00:00", "2014-04-11 11:04:59", [78.3400, 4], [78.5400, 4], [78.2800, 4], [78.4600, 4], [110078760.1000, 4]], 
  ["2014-04-11 11:05:00", "2014-04-11 11:09:59", [78.4600, 4], [78.7900, 4], [78.4600, 4], [78.6800, 4], [200734606.2000, 4]], 
  ["2014-04-11 11:10:00", "2014-04-11 11:14:59", [78.6800, 4], [78.7600, 4], [78.5500, 4], [78.7600, 4], [90102911.2000, 4]], 
  ["2014-04-11 11:15:00", "2014-04-11 11:19:59", [78.7700, 4], [78.8700, 4], [78.6300, 4], [78.6500, 4], [111513691.4000, 4]], 
  ["2014-04-11 11:20:00", "2014-04-11 11:24:59", [78.7000, 4], [78.8400, 4], [78.6000, 4], [78.8400, 4], [89810813.8000, 4]], 
  ["2014-04-11 11:25:00", "2014-04-11 11:29:59", [78.8400, 4], [78.9600, 4], [78.7600, 4], [78.9000, 4], [205903197.5000, 4]], 
  ["2014-04-11 11:30:00", "2014-04-11 11:34:59", [78.9000, 4], [79.1200, 4], [78.8800, 4], [79.0600, 4], [273659259.0000, 4]], 
  ["2014-04-11 11:35:00", "2014-04-11 11:39:59", [79.0600, 4], [79.1300, 4], [78.9300, 4], [79.0000, 4], [70017194.9000, 4]], 
  ["2014-04-11 11:40:00", "2014-04-11 11:44:59", [79.0200, 4], [79.0500, 4], [78.8900, 4], [78.9700, 4], [93399683.2000, 4]], 
  ["2014-04-11 11:45:00", "2014-04-11 11:49:59", [79.0000, 4], [79.3500, 4], [78.9000, 4], [79.1800, 4], [150760196.5000, 4]], 
  ["2014-04-11 11:50:00", "2014-04-11 11:54:59", [79.2000, 4], [79.4000, 4], [79.0100, 4], [79.3800, 4], [214888397.1000, 4]], 
  ["2014-04-11 11:55:00", "2014-04-11 11:59:59", [79.3700, 4], [79.4200, 4], [79.1700, 4], [79.2400, 4], [143135244.8000, 4]], 
  ["2014-04-11 12:00:00", "2014-04-11 12:03:16", [79.2500, 4], [79.5300, 4], [79.2500, 4], [79.4500, 4], [335662670.7000, 4]]]