 [["2014-04-04 15:30:00", "2014-04-04 15:39:59", [81.8300, 4], [82.0600, 4], [81.7700, 4], [81.9700, 4], [168069247.6000, 4]], 
  ["2014-04-04 15:40:00", "2014-04-04 15:49:59", [81.9800, 4], [82.2500, 4], [81.9400, 4], [82.1800, 4], [213695471.7000, 4]], 
  ["2014-04-04 15:50:00", "2014-04-04 15:59:59", [82.1800, 4], [82.4000, 4], [82.1600, 4], [82.1900, 4], [266216518.6000, 4]], 
  ["2014-04-04 16:00:00", "2014-04-04 16:09:59", [82.2000, 4], [82.5500, 4], [82.1800, 4], [82.5000, 4], [338032650.3000, 4]], 
  ["2014-04-04 16:10:00", "2014-04-04 16:19:59", [82.5000, 4], [82.5900, 4], [82.3900, 4], [82.4900, 4], [184586950.0000, 4]], 
  ["2014-04-04 16:20:00", "2014-04-04 16:29:59", [82.4800, 4], [82.7500, 4], [82.3000, 4], [82.6000, 4], [274252398.0000, 4]], 
  ["2014-04-04 16:30:00", "2014-04-04 16:39:59", [82.6000, 4], [82.7700, 4], [82.0900, 4], [82.2100, 4], [595805897.3000, 4]], 
  ["2014-04-04 16:40:00", "2014-04-04 16:49:59", [82.2100, 4], [82.5000, 4], [82.0500, 4], [82.3000, 4], [313540782.9000, 4]], 
  ["2014-04-04 16:50:00", "2014-04-04 16:59:59", [82.3100, 4], [82.4900, 4], [82.1800, 4], [82.4000, 4], [191629396.3000, 4]], 
  ["2014-04-04 17:00:00", "2014-04-04 17:09:59", [82.4400, 4], [82.4800, 4], [82.2100, 4], [82.4400, 4], [127752777.0000, 4]], 
  ["2014-04-04 17:10:00", "2014-04-04 17:19:59", [82.4200, 4], [82.4600, 4], [82.2700, 4], [82.3400, 4], [50522251.6000, 4]], 
  ["2014-04-04 17:20:00", "2014-04-04 17:29:59", [82.3300, 4], [82.5700, 4], [82.3300, 4], [82.5300, 4], [125268748.1000, 4]], 
  ["2014-04-04 17:30:00", "2014-04-04 17:39:59", [82.5100, 4], [82.7200, 4], [82.4100, 4], [82.6500, 4], [364958789.8000, 4]], 
  ["2014-04-04 17:40:00", "2014-04-04 17:49:59", [82.6600, 4], [82.7100, 4], [82.4100, 4], [82.5600, 4], [256808891.2000, 4]], 
  ["2014-04-04 17:50:00", "2014-04-04 17:59:59", [82.5500, 4], [82.7800, 4], [82.5000, 4], [82.7800, 4], [274446664.9000, 4]], 
  ["2014-04-04 18:00:00", "2014-04-04 18:09:59", [82.7800, 4], [83.3000, 4], [82.7800, 4], [83.1600, 4], [875913874.2000, 4]], 
  ["2014-04-04 18:10:00", "2014-04-04 18:19:59", [83.1800, 4], [83.2900, 4], [82.7400, 4], [82.9900, 4], [286836701.1000, 4]], 
  ["2014-04-04 18:20:00", "2014-04-04 18:29:59", [82.9900, 4], [83.1000, 4], [82.8000, 4], [82.9700, 4], [159197032.8000, 4]], 
  ["2014-04-04 18:30:00", "2014-04-04 18:39:59", [83.0100, 4], [83.1500, 4], [82.9300, 4], [83.0300, 4], [586527775.3000, 4]], 
  ["2014-04-07 10:00:00", "2014-04-07 10:09:59", [81.8700, 4], [81.8700, 4], [80.7100, 4], [80.9700, 4], [1757872067.7000, 4]], 
  ["2014-04-07 10:10:00", "2014-04-07 10:19:59", [80.9700, 4], [81.2000, 4], [80.8200, 4], [80.9000, 4], [380020399.7000, 4]], 
  ["2014-04-07 10:20:00", "2014-04-07 10:29:59", [80.8800, 4], [80.9000, 4], [80.6500, 4], [80.8100, 4], [372225028.1000, 4]], 
  ["2014-04-07 10:30:00", "2014-04-07 10:39:59", [80.8100, 4], [80.8800, 4], [80.5600, 4], [80.8700, 4], [234039137.7000, 4]], 
  ["2014-04-07 10:40:00", "2014-04-07 10:49:59", [80.8700, 4], [80.8800, 4], [80.6300, 4], [80.6900, 4], [177964471.6000, 4]], 
  ["2014-04-07 10:50:00", "2014-04-07 10:59:59", [80.6900, 4], [80.9000, 4], [80.6500, 4], [80.8800, 4], [228424900.4000, 4]], 
  ["2014-04-07 11:00:00", "2014-04-07 11:09:59", [80.8600, 4], [81.1700, 4], [80.7600, 4], [81.0500, 4], [311905713.2000, 4]], 
  ["2014-04-07 11:10:00", "2014-04-07 11:19:59", [81.0500, 4], [81.3200, 4], [81.0000, 4], [81.2400, 4], [188232233.3000, 4]], 
  ["2014-04-07 11:20:00", "2014-04-07 11:29:59", [81.2400, 4], [81.3600, 4], [81.0300, 4], [81.1600, 4], [310997991.7000, 4]], 
  ["2014-04-07 11:30:00", "2014-04-07 11:39:59", [81.1900, 4], [81.1900, 4], [80.9100, 4], [80.9700, 4], [203282024.5000, 4]], 
  ["2014-04-07 11:40:00", "2014-04-07 11:49:59", [80.9900, 4], [80.9900, 4], [80.7200, 4], [80.8500, 4], [246714854.5000, 4]], 
  ["2014-04-07 11:50:00", "2014-04-07 11:59:59", [80.8500, 4], [80.9500, 4], [80.7100, 4], [80.8900, 4], [239402189.7000, 4]], 
  ["2014-04-07 12:00:00", "2014-04-07 12:09:59", [80.9000, 4], [81.1300, 4], [80.8400, 4], [81.0600, 4], [146682895.0000, 4]], 
  ["2014-04-07 12:10:00", "2014-04-07 12:19:59", [81.0600, 4], [81.1500, 4], [80.8700, 4], [81.0900, 4], [136831080.3000, 4]], 
  ["2014-04-07 12:20:00", "2014-04-07 12:29:59", [81.0900, 4], [81.3000, 4], [80.9500, 4], [81.2500, 4], [160975321.1000, 4]], 
  ["2014-04-07 12:30:00", "2014-04-07 12:39:59", [81.2500, 4], [81.3100, 4], [81.0700, 4], [81.1200, 4], [129494667.5000, 4]], 
  ["2014-04-07 12:40:00", "2014-04-07 12:49:59", [81.1200, 4], [81.2700, 4], [81.0500, 4], [81.2500, 4], [62034582.4000, 4]], 
  ["2014-04-07 12:50:00", "2014-04-07 12:59:59", [81.2200, 4], [81.2600, 4], [81.1100, 4], [81.2200, 4], [54509961.0000, 4]], 
  ["2014-04-07 13:00:00", "2014-04-07 13:09:59", [81.2200, 4], [81.5500, 4], [81.2100, 4], [81.4800, 4], [399163185.1000, 4]], 
  ["2014-04-07 13:10:00", "2014-04-07 13:19:59", [81.4800, 4], [81.6400, 4], [81.3000, 4], [81.3400, 4], [392940692.3000, 4]], 
  ["2014-04-07 13:20:00", "2014-04-07 13:29:59", [81.3100, 4], [81.4000, 4], [81.2300, 4], [81.3500, 4], [148870330.3000, 4]], 
  ["2014-04-07 13:30:00", "2014-04-07 13:39:59", [81.3600, 4], [81.4800, 4], [81.2400, 4], [81.3000, 4], [229532049.3000, 4]], 
  ["2014-04-07 13:40:00", "2014-04-07 13:49:59", [81.3000, 4], [81.4500, 4], [81.2200, 4], [81.4200, 4], [101241461.5000, 4]], 
  ["2014-04-07 13:50:00", "2014-04-07 13:59:59", [81.4200, 4], [81.4500, 4], [81.0300, 4], [81.1100, 4], [276136695.0000, 4]], 
  ["2014-04-07 14:00:00", "2014-04-07 14:09:59", [81.1400, 4], [81.3500, 4], [81.0500, 4], [81.1400, 4], [229716819.1000, 4]], 
  ["2014-04-07 14:10:00", "2014-04-07 14:19:59", [81.1400, 4], [81.3600, 4], [81.1200, 4], [81.2300, 4], [181028564.5000, 4]], 
  ["2014-04-07 14:20:00", "2014-04-07 14:29:59", [81.2200, 4], [81.2300, 4], [80.7000, 4], [80.7300, 4], [397907852.0000, 4]], 
  ["2014-04-07 14:30:00", "2014-04-07 14:39:59", [80.7100, 4], [80.7300, 4], [80.2800, 4], [80.4900, 4], [1025087262.0000, 4]], 
  ["2014-04-07 14:40:00", "2014-04-07 14:49:59", [80.4900, 4], [80.5200, 4], [80.1100, 4], [80.2800, 4], [680956770.8000, 4]], 
  ["2014-04-07 14:50:00", "2014-04-07 14:59:59", [80.2500, 4], [80.2500, 4], [79.8500, 4], [80.0000, 4], [892172033.2000, 4]], 
  ["2014-04-07 15:00:00", "2014-04-07 15:09:59", [79.9700, 4], [79.9900, 4], [79.4500, 4], [79.6000, 4], [851823221.0000, 4]], 
  ["2014-04-07 15:10:00", "2014-04-07 15:19:59", [79.6400, 4], [79.8000, 4], [79.3500, 4], [79.4500, 4], [428419169.9000, 4]], 
  ["2014-04-07 15:20:00", "2014-04-07 15:29:59", [79.4900, 4], [79.5900, 4], [79.1500, 4], [79.3400, 4], [642122354.2000, 4]], 
  ["2014-04-07 15:30:00", "2014-04-07 15:39:59", [79.3300, 4], [79.4500, 4], [79.1200, 4], [79.3100, 4], [573728808.7000, 4]], 
  ["2014-04-07 15:40:00", "2014-04-07 15:49:59", [79.3000, 4], [79.4500, 4], [79.0100, 4], [79.2300, 4], [548559550.4000, 4]], 
  ["2014-04-07 15:50:00", "2014-04-07 15:59:59", [79.2300, 4], [79.4900, 4], [79.0100, 4], [79.4900, 4], [426950484.8000, 4]], 
  ["2014-04-07 16:00:00", "2014-04-07 16:09:59", [79.4800, 4], [79.6000, 4], [79.3000, 4], [79.4100, 4], [301934632.2000, 4]], 
  ["2014-04-07 16:10:00", "2014-04-07 16:19:59", [79.4100, 4], [79.6200, 4], [79.2500, 4], [79.2500, 4], [279600053.8000, 4]], 
  ["2014-04-07 16:20:00", "2014-04-07 16:29:59", [79.2500, 4], [79.3200, 4], [79.0200, 4], [79.2800, 4], [291679465.3000, 4]], 
  ["2014-04-07 16:30:00", "2014-04-07 16:39:59", [79.2600, 4], [79.5500, 4], [79.2000, 4], [79.3700, 4], [267113784.9000, 4]], 
  ["2014-04-07 16:40:00", "2014-04-07 16:49:59", [79.3400, 4], [79.5600, 4], [79.1200, 4], [79.3700, 4], [197233373.7000, 4]], 
  ["2014-04-07 16:50:00", "2014-04-07 16:59:59", [79.3900, 4], [79.5200, 4], [79.2500, 4], [79.2500, 4], [131408397.0000, 4]], 
  ["2014-04-07 17:00:00", "2014-04-07 17:09:59", [79.2600, 4], [79.3200, 4], [78.8700, 4], [79.2100, 4], [567748456.8000, 4]], 
  ["2014-04-07 17:10:00", "2014-04-07 17:19:59", [79.2100, 4], [79.3600, 4], [79.0500, 4], [79.3400, 4], [203181939.2000, 4]], 
  ["2014-04-07 17:20:00", "2014-04-07 17:29:59", [79.3400, 4], [79.5100, 4], [79.2100, 4], [79.3900, 4], [213659229.0000, 4]], 
  ["2014-04-07 17:30:00", "2014-04-07 17:39:59", [79.4000, 4], [80.0400, 4], [79.3500, 4], [79.4600, 4], [617577611.1000, 4]], 
  ["2014-04-07 17:40:00", "2014-04-07 17:49:59", [79.4400, 4], [79.8000, 4], [79.3000, 4], [79.6000, 4], [216441810.0000, 4]], 
  ["2014-04-07 17:50:00", "2014-04-07 17:59:59", [79.6200, 4], [79.8900, 4], [79.5100, 4], [79.8300, 4], [264934704.2000, 4]], 
  ["2014-04-07 18:00:00", "2014-04-07 18:09:59", [79.8000, 4], [79.9100, 4], [79.4600, 4], [79.6800, 4], [235126653.9000, 4]], 
  ["2014-04-07 18:10:00", "2014-04-07 18:19:59", [79.6800, 4], [79.9200, 4], [79.6300, 4], [79.9100, 4], [289969750.1000, 4]], 
  ["2014-04-07 18:20:00", "2014-04-07 18:29:59", [79.9100, 4], [79.9200, 4], [79.6300, 4], [79.8300, 4], [284249586.1000, 4]], 
  ["2014-04-07 18:30:00", "2014-04-07 18:39:59", [79.8200, 4], [79.8300, 4], [79.3100, 4], [79.5200, 4], [619421813.5000, 4]], 
  ["2014-04-08 10:00:00", "2014-04-08 10:09:59", [79.8300, 4], [80.0000, 4], [79.1700, 4], [79.2100, 4], [588532975.1000, 4]], 
  ["2014-04-08 10:10:00", "2014-04-08 10:19:59", [79.2100, 4], [79.3500, 4], [78.5900, 4], [78.7400, 4], [1152862888.7000, 4]], 
  ["2014-04-08 10:20:00", "2014-04-08 10:29:59", [78.7000, 4], [78.7900, 4], [78.5100, 4], [78.7100, 4], [304091143.7000, 4]], 
  ["2014-04-08 10:30:00", "2014-04-08 10:39:59", [78.7200, 4], [79.1800, 4], [78.7000, 4], [78.9800, 4], [455002897.6000, 4]], 
  ["2014-04-08 10:40:00", "2014-04-08 10:49:59", [78.9700, 4], [79.0800, 4], [78.9600, 4], [78.9700, 4], [130124447.1000, 4]], 
  ["2014-04-08 10:50:00", "2014-04-08 10:59:59", [78.9700, 4], [79.2900, 4], [78.9500, 4], [78.9700, 4], [211185219.1000, 4]], 
  ["2014-04-08 11:00:00", "2014-04-08 11:09:59", [78.9900, 4], [79.2100, 4], [78.9000, 4], [79.1800, 4], [275720050.1000, 4]], 
  ["2014-04-08 11:10:00", "2014-04-08 11:19:59", [79.2100, 4], [79.5000, 4], [79.1000, 4], [79.4700, 4], [316653822.5000, 4]], 
  ["2014-04-08 11:20:00", "2014-04-08 11:29:59", [79.4700, 4], [79.4800, 4], [78.7700, 4], [78.9600, 4], [458199640.2000, 4]], 
  ["2014-04-08 11:30:00", "2014-04-08 11:39:59", [78.9900, 4], [79.1400, 4], [78.8500, 4], [78.9300, 4], [395488752.2000, 4]], 
  ["2014-04-08 11:40:00", "2014-04-08 11:49:59", [78.9400, 4], [78.9900, 4], [78.8600, 4], [78.9000, 4], [128223938.8000, 4]], 
  ["2014-04-08 11:50:00", "2014-04-08 11:59:59", [78.9000, 4], [79.3600, 4], [78.8100, 4], [79.3600, 4], [251132177.6000, 4]], 
  ["2014-04-08 12:00:00", "2014-04-08 12:09:59", [79.3700, 4], [79.4500, 4], [79.1500, 4], [79.2200, 4], [421034367.6000, 4]], 
  ["2014-04-08 12:10:00", "2014-04-08 12:19:59", [79.2100, 4], [79.4900, 4], [79.0600, 4], [79.2100, 4], [235456311.3000, 4]], 
  ["2014-04-08 12:20:00", "2014-04-08 12:29:59", [79.1800, 4], [79.2600, 4], [79.0600, 4], [79.1800, 4], [125781247.5000, 4]], 
  ["2014-04-08 12:30:00", "2014-04-08 12:39:59", [79.1900, 4], [79.3700, 4], [79.1300, 4], [79.3100, 4], [94740531.2000, 4]], 
  ["2014-04-08 12:40:00", "2014-04-08 12:49:59", [79.3000, 4], [79.8000, 4], [79.2100, 4], [79.5600, 4], [454237318.5000, 4]], 
  ["2014-04-08 12:50:00", "2014-04-08 12:59:59", [79.5600, 4], [79.6900, 4], [79.3000, 4], [79.3200, 4], [375119320.7000, 4]], 
  ["2014-04-08 13:00:00", "2014-04-08 13:09:59", [79.3200, 4], [79.6000, 4], [79.2600, 4], [79.4600, 4], [104003268.0000, 4]], 
  ["2014-04-08 13:10:00", "2014-04-08 13:19:59", [79.4700, 4], [79.5000, 4], [79.3000, 4], [79.3900, 4], [94144552.8000, 4]], 
  ["2014-04-08 13:20:00", "2014-04-08 13:29:59", [79.4100, 4], [79.5300, 4], [79.2900, 4], [79.5100, 4], [85499538.5000, 4]], 
  ["2014-04-08 13:30:00", "2014-04-08 13:39:59", [79.5300, 4], [79.6000, 4], [79.3100, 4], [79.4200, 4], [78155290.3000, 4]], 
  ["2014-04-08 13:40:00", "2014-04-08 13:49:59", [79.4200, 4], [79.4500, 4], [79.3000, 4], [79.4000, 4], [48736377.7000, 4]], 
  ["2014-04-08 13:50:00", "2014-04-08 13:59:59", [79.4000, 4], [79.4700, 4], [79.3100, 4], [79.3500, 4], [51665010.1000, 4]], 
  ["2014-04-08 14:00:00", "2014-04-08 14:09:59", [79.3200, 4], [79.3800, 4], [79.1000, 4], [79.3500, 4], [274030083.3000, 4]], 
  ["2014-04-08 14:10:00", "2014-04-08 14:19:59", [79.3500, 4], [79.7400, 4], [79.2900, 4], [79.3500, 4], [286678235.2000, 4]], 
  ["2014-04-08 14:20:00", "2014-04-08 14:29:59", [79.3900, 4], [79.4700, 4], [79.2000, 4], [79.4400, 4], [115763594.0000, 4]], 
  ["2014-04-08 14:30:00", "2014-04-08 14:39:59", [79.4400, 4], [79.5000, 4], [79.2100, 4], [79.3200, 4], [104869006.7000, 4]], 
  ["2014-04-08 14:40:00", "2014-04-08 14:49:59", [79.3300, 4], [79.3400, 4], [79.0300, 4], [79.0300, 4], [238179526.0000, 4]], 
  ["2014-04-08 14:50:00", "2014-04-08 14:59:59", [79.0300, 4], [79.1200, 4], [78.8000, 4], [78.8100, 4], [417142057.1000, 4]], 
  ["2014-04-08 15:00:00", "2014-04-08 15:09:59", [78.8100, 4], [78.9200, 4], [78.7000, 4], [78.9200, 4], [312516871.5000, 4]], 
  ["2014-04-08 15:10:00", "2014-04-08 15:19:59", [78.9100, 4], [79.1400, 4], [78.7600, 4], [79.0000, 4], [362308798.2000, 4]], 
  ["2014-04-08 15:20:00", "2014-04-08 15:29:59", [79.0000, 4], [79.1500, 4], [78.9100, 4], [79.0800, 4], [82167906.4000, 4]], 
  ["2014-04-08 15:30:00", "2014-04-08 15:39:59", [79.1100, 4], [79.1100, 4], [78.9000, 4], [79.0200, 4], [112349639.6000, 4]], 
  ["2014-04-08 15:40:00", "2014-04-08 15:49:59", [78.9900, 4], [79.1000, 4], [78.8000, 4], [79.0200, 4], [157027201.3000, 4]], 
  ["2014-04-08 15:50:00", "2014-04-08 15:59:59", [79.0300, 4], [79.1100, 4], [78.8400, 4], [78.8500, 4], [142737031.7000, 4]], 
  ["2014-04-08 16:00:00", "2014-04-08 16:09:59", [78.8500, 4], [79.1000, 4], [78.8400, 4], [79.0400, 4], [130814131.6000, 4]], 
  ["2014-04-08 16:10:00", "2014-04-08 16:19:59", [79.0900, 4], [79.2700, 4], [78.9700, 4], [79.2400, 4], [90436330.4000, 4]], 
  ["2014-04-08 16:20:00", "2014-04-08 16:29:59", [79.2600, 4], [79.3700, 4], [79.1100, 4], [79.2200, 4], [146029557.5000, 4]], 
  ["2014-04-08 16:30:00", "2014-04-08 16:39:59", [79.2300, 4], [79.4900, 4], [79.1900, 4], [79.3700, 4], [216186223.7000, 4]], 
  ["2014-04-08 16:40:00", "2014-04-08 16:49:59", [79.3700, 4], [79.4800, 4], [79.0500, 4], [79.3600, 4], [238771581.7000, 4]], 
  ["2014-04-08 16:50:00", "2014-04-08 16:59:59", [79.3500, 4], [79.4800, 4], [79.2300, 4], [79.4500, 4], [96095843.9000, 4]], 
  ["2014-04-08 17:00:00", "2014-04-08 17:09:59", [79.4300, 4], [79.6800, 4], [79.4200, 4], [79.4400, 4], [235030122.8000, 4]], 
  ["2014-04-08 17:10:00", "2014-04-08 17:19:59", [79.4400, 4], [79.5800, 4], [79.2400, 4], [79.2700, 4], [210316528.0000, 4]], 
  ["2014-04-08 17:20:00", "2014-04-08 17:29:59", [79.2700, 4], [79.4200, 4], [79.1500, 4], [79.2700, 4], [120813474.0000, 4]], 
  ["2014-04-08 17:30:00", "2014-04-08 17:39:59", [79.2600, 4], [79.4800, 4], [79.1000, 4], [79.3500, 4], [236209936.1000, 4]], 
  ["2014-04-08 17:40:00", "2014-04-08 17:49:59", [79.3700, 4], [79.5200, 4], [79.2000, 4], [79.2500, 4], [195989359.6000, 4]], 
  ["2014-04-08 17:50:00", "2014-04-08 17:59:59", [79.2400, 4], [79.4500, 4], [79.1800, 4], [79.3600, 4], [196283407.6000, 4]], 
  ["2014-04-08 18:00:00", "2014-04-08 18:09:59", [79.3600, 4], [79.4400, 4], [79.1400, 4], [79.2100, 4], [142101841.7000, 4]], 
  ["2014-04-08 18:10:00", "2014-04-08 18:19:59", [79.2200, 4], [79.3100, 4], [79.0500, 4], [79.2300, 4], [241126017.8000, 4]], 
  ["2014-04-08 18:20:00", "2014-04-08 18:29:59", [79.2300, 4], [79.3800, 4], [79.1100, 4], [79.1800, 4], [300422604.0000, 4]], 
  ["2014-04-08 18:30:00", "2014-04-08 18:39:59", [79.1800, 4], [79.6600, 4], [79.1100, 4], [79.6000, 4], [680164920.8000, 4]], 
  ["2014-04-09 10:00:00", "2014-04-09 10:09:59", [79.8100, 4], [80.1000, 4], [79.3000, 4], [79.3100, 4], [503506405.1000, 4]], 
  ["2014-04-09 10:10:00", "2014-04-09 10:15:57", [79.3000, 4], [79.4800, 4], [79.1000, 4], [79.4700, 4], [463439964.9000, 4]], 
  ["2014-04-09 10:20:00", "2014-04-09 10:29:59", [79.5300, 4], [79.6100, 4], [79.2500, 4], [79.2500, 4], [145062807.3000, 4]], 
  ["2014-04-09 10:30:00", "2014-04-09 10:39:59", [79.2600, 4], [79.2600, 4], [78.9100, 4], [79.1300, 4], [429968978.8000, 4]], 
  ["2014-04-09 10:40:00", "2014-04-09 10:49:59", [79.1600, 4], [79.2500, 4], [79.0300, 4], [79.1000, 4], [111040960.0000, 4]], 
  ["2014-04-09 10:50:00", "2014-04-09 10:59:59", [79.1000, 4], [79.2000, 4], [79.0300, 4], [79.1900, 4], [62934265.9000, 4]], 
  ["2014-04-09 11:00:00", "2014-04-09 11:09:59", [79.1800, 4], [79.3000, 4], [78.9500, 4], [78.9800, 4], [297447694.1000, 4]], 
  ["2014-04-09 11:10:00", "2014-04-09 11:19:59", [78.9800, 4], [79.1200, 4], [78.6300, 4], [79.1000, 4], [545215476.4000, 4]], 
  ["2014-04-09 11:20:00", "2014-04-09 11:29:59", [79.1000, 4], [79.1900, 4], [78.8600, 4], [79.0000, 4], [154482614.1000, 4]], 
  ["2014-04-09 11:30:00", "2014-04-09 11:39:59", [78.9900, 4], [79.0500, 4], [78.8800, 4], [79.0400, 4], [153257739.8000, 4]], 
  ["2014-04-09 11:40:00", "2014-04-09 11:49:59", [79.0400, 4], [79.1600, 4], [78.9600, 4], [79.0900, 4], [121895043.9000, 4]], 
  ["2014-04-09 11:50:00", "2014-04-09 11:59:59", [79.0900, 4], [79.1500, 4], [79.0000, 4], [79.0100, 4], [50769847.8000, 4]], 
  ["2014-04-09 12:00:00", "2014-04-09 12:09:59", [79.0100, 4], [79.1400, 4], [78.9400, 4], [79.1100, 4], [213468316.8000, 4]], 
  ["2014-04-09 12:10:00", "2014-04-09 12:19:59", [79.1100, 4], [79.1500, 4], [78.9200, 4], [78.9200, 4], [145282018.0000, 4]], 
  ["2014-04-09 12:20:00", "2014-04-09 12:29:59", [78.9200, 4], [79.0200, 4], [78.7300, 4], [78.7700, 4], [240124975.7000, 4]], 
  ["2014-04-09 12:30:00", "2014-04-09 12:39:59", [78.7600, 4], [78.8500, 4], [78.0000, 4], [78.0500, 4], [926472513.7000, 4]], 
  ["2014-04-09 12:40:00", "2014-04-09 12:49:59", [78.0400, 4], [78.2500, 4], [77.7700, 4], [77.8000, 4], [641750438.8000, 4]], 
  ["2014-04-09 12:50:00", "2014-04-09 12:59:59", [77.8000, 4], [78.2500, 4], [77.7600, 4], [77.9400, 4], [402276217.0000, 4]], 
  ["2014-04-09 13:00:00", "2014-04-09 13:09:59", [77.9100, 4], [78.1500, 4], [77.9000, 4], [78.0200, 4], [198802602.9000, 4]], 
  ["2014-04-09 13:10:00", "2014-04-09 13:19:59", [78.0300, 4], [78.0400, 4], [77.8100, 4], [77.9200, 4], [205373365.3000, 4]], 
  ["2014-04-09 13:20:00", "2014-04-09 13:29:59", [77.9100, 4], [78.2800, 4], [77.7500, 4], [78.1000, 4], [348506294.5000, 4]], 
  ["2014-04-09 13:30:00", "2014-04-09 13:39:59", [78.1200, 4], [78.2300, 4], [78.0000, 4], [78.1800, 4], [258136707.6000, 4]], 
  ["2014-04-09 13:40:00", "2014-04-09 13:49:59", [78.1400, 4], [78.3200, 4], [78.0500, 4], [78.2300, 4], [149764440.3000, 4]], 
  ["2014-04-09 13:50:00", "2014-04-09 13:59:59", [78.2300, 4], [78.2500, 4], [78.0800, 4], [78.2500, 4], [107722887.3000, 4]], 
  ["2014-04-09 14:00:00", "2014-04-09 14:09:59", [78.2500, 4], [78.2500, 4], [77.9200, 4], [77.9800, 4], [206976496.7000, 4]], 
  ["2014-04-09 14:10:00", "2014-04-09 14:19:59", [77.9500, 4], [78.0000, 4], [77.8000, 4], [77.9700, 4], [239008377.1000, 4]], 
  ["2014-04-09 14:20:00", "2014-04-09 14:29:59", [77.9700, 4], [78.1200, 4], [77.9100, 4], [78.1200, 4], [92950060.8000, 4]], 
  ["2014-04-09 14:30:00", "2014-04-09 14:39:59", [78.1100, 4], [78.2000, 4], [78.0700, 4], [78.1800, 4], [102062297.3000, 4]], 
  ["2014-04-09 14:40:00", "2014-04-09 14:49:59", [78.1800, 4], [78.1900, 4], [78.0100, 4], [78.0600, 4], [61208193.8000, 4]], 
  ["2014-04-09 14:50:00", "2014-04-09 14:59:59", [78.0800, 4], [78.2900, 4], [78.0600, 4], [78.1400, 4], [109107109.0000, 4]], 
  ["2014-04-09 15:00:00", "2014-04-09 15:09:59", [78.1600, 4], [78.2300, 4], [78.1000, 4], [78.2100, 4], [59523806.0000, 4]], 
  ["2014-04-09 15:10:00", "2014-04-09 15:19:59", [78.2100, 4], [78.2500, 4], [78.1200, 4], [78.1600, 4], [64847050.1000, 4]], 
  ["2014-04-09 15:20:00", "2014-04-09 15:29:59", [78.1500, 4], [78.4100, 4], [78.1400, 4], [78.3800, 4], [272010309.0000, 4]], 
  ["2014-04-09 15:30:00", "2014-04-09 15:39:59", [78.3900, 4], [78.6600, 4], [78.3400, 4], [78.6000, 4], [472481808.2000, 4]], 
  ["2014-04-09 15:40:00", "2014-04-09 15:49:59", [78.5600, 4], [78.7200, 4], [78.3000, 4], [78.3500, 4], [258635062.1000, 4]], 
  ["2014-04-09 15:50:00", "2014-04-09 15:59:59", [78.3500, 4], [78.3600, 4], [78.0900, 4], [78.1000, 4], [306820436.1000, 4]], 
  ["2014-04-09 16:00:00", "2014-04-09 16:09:59", [78.1000, 4], [78.3700, 4], [78.1000, 4], [78.2000, 4], [155778877.3000, 4]], 
  ["2014-04-09 16:10:00", "2014-04-09 16:19:59", [78.1900, 4], [78.2000, 4], [78.0500, 4], [78.1000, 4], [119586041.9000, 4]], 
  ["2014-04-09 16:20:00", "2014-04-09 16:29:59", [78.1000, 4], [78.2300, 4], [78.0100, 4], [78.1000, 4], [157762013.1000, 4]], 
  ["2014-04-09 16:30:00", "2014-04-09 16:39:59", [78.1500, 4], [78.3600, 4], [78.0400, 4], [78.3000, 4], [119632078.6000, 4]], 
  ["2014-04-09 16:40:00", "2014-04-09 16:49:59", [78.3000, 4], [78.5600, 4], [78.3000, 4], [78.4100, 4], [200970687.1000, 4]], 
  ["2014-04-09 16:50:00", "2014-04-09 16:59:59", [78.4200, 4], [78.5300, 4], [78.2800, 4], [78.3100, 4], [105340580.7000, 4]], 
  ["2014-04-09 17:00:00", "2014-04-09 17:09:59", [78.3100, 4], [78.4900, 4], [78.3000, 4], [78.4500, 4], [64409641.0000, 4]], 
  ["2014-04-09 17:10:00", "2014-04-09 17:19:59", [78.4400, 4], [78.4500, 4], [78.2400, 4], [78.3700, 4], [128564035.7000, 4]], 
  ["2014-04-09 17:20:00", "2014-04-09 17:29:59", [78.3400, 4], [78.5700, 4], [78.3200, 4], [78.5600, 4], [157504271.4000, 4]], 
  ["2014-04-09 17:30:00", "2014-04-09 17:39:59", [78.5500, 4], [78.7900, 4], [78.3400, 4], [78.5100, 4], [471814126.7000, 4]], 
  ["2014-04-09 17:40:00", "2014-04-09 17:49:59", [78.5100, 4], [78.5700, 4], [78.1500, 4], [78.1500, 4], [362301837.3000, 4]], 
  ["2014-04-09 17:50:00", "2014-04-09 17:59:59", [78.1500, 4], [78.4100, 4], [78.1500, 4], [78.2500, 4], [131957006.2000, 4]], 
  ["2014-04-09 18:00:00", "2014-04-09 18:09:59", [78.2900, 4], [78.3900, 4], [78.1500, 4], [78.3500, 4], [157214197.0000, 4]], 
  ["2014-04-09 18:10:00", "2014-04-09 18:19:59", [78.3200, 4], [78.5100, 4], [78.2600, 4], [78.4600, 4], [126158203.6000, 4]], 
  ["2014-04-09 18:20:00", "2014-04-09 18:29:59", [78.4500, 4], [78.6400, 4], [78.3800, 4], [78.4300, 4], [269897904.1000, 4]], 
  ["2014-04-09 18:30:00", "2014-04-09 18:39:59", [78.4500, 4], [78.9300, 4], [78.4500, 4], [78.9000, 4], [683972553.1000, 4]], 
  ["2014-04-10 10:00:00", "2014-04-10 10:09:59", [79.2300, 4], [79.3900, 4], [78.6100, 4], [78.7700, 4], [1005972810.9000, 4]], 
  ["2014-04-10 10:10:00", "2014-04-10 10:19:59", [78.7600, 4], [79.1100, 4], [78.6000, 4], [79.0900, 4], [333797374.9000, 4]], 
  ["2014-04-10 10:20:00", "2014-04-10 10:29:59", [79.1000, 4], [79.9300, 4], [79.1000, 4], [79.8000, 4], [698504575.8000, 4]], 
  ["2014-04-10 10:30:00", "2014-04-10 10:39:59", [79.8000, 4], [79.9300, 4], [79.4300, 4], [79.5300, 4], [382530176.0000, 4]], 
  ["2014-04-10 10:40:00", "2014-04-10 10:49:59", [79.5300, 4], [79.7200, 4], [79.3500, 4], [79.7200, 4], [277048633.1000, 4]], 
  ["2014-04-10 10:50:00", "2014-04-10 10:59:59", [79.7000, 4], [80.2800, 4], [79.6800, 4], [80.1500, 4], [766566949.3000, 4]], 
  ["2014-04-10 11:00:00", "2014-04-10 11:09:59", [80.1600, 4], [80.4400, 4], [79.9500, 4], [79.9800, 4], [644943816.5000, 4]], 
  ["2014-04-10 11:10:00", "2014-04-10 11:19:59", [80.0100, 4], [80.0500, 4], [79.6000, 4], [79.7800, 4], [496967462.5000, 4]], 
  ["2014-04-10 11:20:00", "2014-04-10 11:29:59", [79.7800, 4], [79.9300, 4], [79.7300, 4], [79.9100, 4], [167187852.4000, 4]], 
  ["2014-04-10 11:30:00", "2014-04-10 11:39:59", [79.9000, 4], [80.1100, 4], [79.9000, 4], [80.1000, 4], [216130935.2000, 4]], 
  ["2014-04-10 11:40:00", "2014-04-10 11:49:59", [80.1100, 4], [80.1500, 4], [79.8600, 4], [79.9300, 4], [204772991.2000, 4]], 
  ["2014-04-10 11:50:00", "2014-04-10 11:59:59", [79.9100, 4], [79.9700, 4], [79.7200, 4], [79.9700, 4], [154160336.2000, 4]], 
  ["2014-04-10 12:00:00", "2014-04-10 12:09:59", [79.9600, 4], [80.0100, 4], [79.6100, 4], [79.6600, 4], [309037374.6000, 4]], 
  ["2014-04-10 12:10:00", "2014-04-10 12:19:59", [79.6600, 4], [79.8200, 4], [79.5300, 4], [79.8000, 4], [250474834.6000, 4]], 
  ["2014-04-10 12:20:00", "2014-04-10 12:29:59", [79.8000, 4], [79.8600, 4], [79.5400, 4], [79.6500, 4], [96464989.6000, 4]], 
  ["2014-04-10 12:30:00", "2014-04-10 12:39:59", [79.6400, 4], [79.6900, 4], [79.5500, 4], [79.6000, 4], [70257759.0000, 4]], 
  ["2014-04-10 12:40:00", "2014-04-10 12:49:59", [79.6000, 4], [79.7300, 4], [79.5700, 4], [79.6200, 4], [95394737.2000, 4]], 
  ["2014-04-10 12:50:00", "2014-04-10 12:59:59", [79.6100, 4], [79.6200, 4], [79.3500, 4], [79.3900, 4], [382886368.0000, 4]], 
  ["2014-04-10 13:00:00", "2014-04-10 13:09:59", [79.3800, 4], [79.4000, 4], [78.8500, 4], [78.8900, 4], [639965371.2000, 4]], 
  ["2014-04-10 13:10:00", "2014-04-10 13:19:59", [78.8900, 4], [79.0900, 4], [78.7300, 4], [78.7700, 4], [317034933.2000, 4]], 
  ["2014-04-10 13:20:00", "2014-04-10 13:29:59", [78.8000, 4], [78.9000, 4], [78.5100, 4], [78.6300, 4], [435896697.7000, 4]], 
  ["2014-04-10 13:30:00", "2014-04-10 13:39:59", [78.5900, 4], [78.8500, 4], [78.5700, 4], [78.7600, 4], [153185742.6000, 4]], 
  ["2014-04-10 13:40:00", "2014-04-10 13:49:59", [78.7600, 4], [78.8400, 4], [78.6000, 4], [78.8100, 4], [99664246.5000, 4]], 
  ["2014-04-10 13:50:00", "2014-04-10 13:59:59", [78.8100, 4], [78.9500, 4], [78.7100, 4], [78.9300, 4], [110287798.2000, 4]], 
  ["2014-04-10 14:00:00", "2014-04-10 14:09:59", [78.9400, 4], [78.9600, 4], [78.7000, 4], [78.8600, 4], [114961680.4000, 4]], 
  ["2014-04-10 14:10:00", "2014-04-10 14:19:59", [78.8700, 4], [78.9800, 4], [78.8100, 4], [78.9200, 4], [106674690.7000, 4]], 
  ["2014-04-10 14:20:00", "2014-04-10 14:29:59", [78.9400, 4], [79.0700, 4], [78.8800, 4], [78.9100, 4], [85319327.6000, 4]], 
  ["2014-04-10 14:30:00", "2014-04-10 14:39:59", [78.9100, 4], [79.0700, 4], [78.9100, 4], [79.0400, 4], [47707255.4000, 4]], 
  ["2014-04-10 14:40:00", "2014-04-10 14:49:59", [79.0600, 4], [79.0700, 4], [78.8700, 4], [78.9100, 4], [51240656.8000, 4]], 
  ["2014-04-10 14:50:00", "2014-04-10 14:59:59", [78.9100, 4], [79.2300, 4], [78.9100, 4], [79.1400, 4], [176504494.0000, 4]], 
  ["2014-04-10 15:00:00", "2014-04-10 15:09:59", [79.1300, 4], [79.3300, 4], [79.1200, 4], [79.2500, 4], [169460424.5000, 4]], 
  ["2014-04-10 15:10:00", "2014-04-10 15:19:59", [79.2500, 4], [79.5400, 4], [79.2200, 4], [79.4100, 4], [264695152.5000, 4]], 
  ["2014-04-10 15:20:00", "2014-04-10 15:29:59", [79.4100, 4], [79.9300, 4], [79.4100, 4], [79.6900, 4], [627120576.0000, 4]], 
  ["2014-04-10 15:30:00", "2014-04-10 15:39:59", [79.6900, 4], [79.7500, 4], [79.2400, 4], [79.3000, 4], [270776647.7000, 4]], 
  ["2014-04-10 15:40:00", "2014-04-10 15:49:59", [79.3000, 4], [79.4300, 4], [79.1800, 4], [79.2400, 4], [183016858.8000, 4]], 
  ["2014-04-10 15:50:00", "2014-04-10 15:59:59", [79.2300, 4], [79.3700, 4], [79.2300, 4], [79.2300, 4], [70869163.5000, 4]], 
  ["2014-04-10 16:00:00", "2014-04-10 16:09:59", [79.2300, 4], [79.5000, 4], [79.0700, 4], [79.4000, 4], [200279674.9000, 4]], 
  ["2014-04-10 16:10:00", "2014-04-10 16:19:59", [79.3900, 4], [79.4000, 4], [79.1600, 4], [79.2300, 4], [262239087.0000, 4]], 
  ["2014-04-10 16:20:00", "2014-04-10 16:29:59", [79.2100, 4], [79.2400, 4], [79.0700, 4], [79.1800, 4], [120839223.1000, 4]], 
  ["2014-04-10 16:30:00", "2014-04-10 16:39:59", [79.1900, 4], [79.4800, 4], [79.1300, 4], [79.2900, 4], [128408540.7000, 4]], 
  ["2014-04-10 16:40:00", "2014-04-10 16:49:59", [79.3100, 4], [79.4100, 4], [79.2700, 4], [79.3200, 4], [64052273.5000, 4]], 
  ["2014-04-10 16:50:00", "2014-04-10 16:59:59", [79.3800, 4], [79.4800, 4], [79.3500, 4], [79.4500, 4], [64764788.1000, 4]], 
  ["2014-04-10 17:00:00", "2014-04-10 17:09:59", [79.4500, 4], [79.5500, 4], [79.2300, 4], [79.3100, 4], [134739554.2000, 4]], 
  ["2014-04-10 17:10:00", "2014-04-10 17:19:59", [79.3300, 4], [79.4700, 4], [79.2900, 4], [79.4200, 4], [68055959.8000, 4]], 
  ["2014-04-10 17:20:00", "2014-04-10 17:29:59", [79.4200, 4], [79.6100, 4], [79.4000, 4], [79.5600, 4], [100741431.2000, 4]], 
  ["2014-04-10 17:30:00", "2014-04-10 17:39:59", [79.5600, 4], [79.5700, 4], [79.1200, 4], [79.1600, 4], [277784725.0000, 4]], 
  ["2014-04-10 17:40:00", "2014-04-10 17:49:59", [79.1600, 4], [79.5600, 4], [79.1600, 4], [79.5300, 4], [308142214.0000, 4]], 
  ["2014-04-10 17:50:00", "2014-04-10 17:59:59", [79.5000, 4], [79.6600, 4], [79.3000, 4], [79.6600, 4], [373529205.9000, 4]], 
  ["2014-04-10 18:00:00", "2014-04-10 18:09:59", [79.6500, 4], [79.7000, 4], [79.4100, 4], [79.4500, 4], [227967642.0000, 4]], 
  ["2014-04-10 18:10:00", "2014-04-10 18:19:59", [79.4700, 4], [79.5400, 4], [79.3600, 4], [79.3600, 4], [167450540.2000, 4]], 
  ["2014-04-10 18:20:00", "2014-04-10 18:28:17", [79.3800, 4], [79.6800, 4], [79.3600, 4], [79.6600, 4], [310659989.2000, 4]], 
  ["2014-04-10 18:30:00", "2014-04-10 18:39:59", [79.6800, 4], [79.9900, 4], [79.5600, 4], [79.9100, 4], [739703918.3000, 4]], 
  ["2014-04-11 10:00:00", "2014-04-11 10:09:59", [78.7100, 4], [78.7200, 4], [77.6500, 4], [78.2500, 4], [1156926466.9000, 4]], 
  ["2014-04-11 10:10:00", "2014-04-11 10:19:59", [78.2500, 4], [78.4700, 4], [78.2300, 4], [78.3200, 4], [303250987.9000, 4]], 
  ["2014-04-11 10:20:00", "2014-04-11 10:29:59", [78.3500, 4], [78.6000, 4], [78.2800, 4], [78.5000, 4], [244724166.6000, 4]], 
  ["2014-04-11 10:30:00", "2014-04-11 10:39:59", [78.4500, 4], [78.5000, 4], [78.3700, 4], [78.4100, 4], [78888337.8000, 4]], 
  ["2014-04-11 10:40:00", "2014-04-11 10:49:59", [78.4200, 4], [78.4600, 4], [78.2700, 4], [78.2800, 4], [117269295.7000, 4]], 
  ["2014-04-11 10:50:00", "2014-04-11 10:59:59", [78.2900, 4], [78.4200, 4], [78.1600, 4], [78.3500, 4], [260198979.8000, 4]], 
  ["2014-04-11 11:00:00", "2014-04-11 11:09:59", [78.3400, 4], [78.7900, 4], [78.2800, 4], [78.6800, 4], [310813366.3000, 4]], 
  ["2014-04-11 11:10:00", "2014-04-11 11:19:59", [78.6800, 4], [78.8700, 4], [78.5500, 4], [78.6500, 4], [201616602.6000, 4]], 
  ["2014-04-11 11:20:00", "2014-04-11 11:29:59", [78.7000, 4], [78.9600, 4], [78.6000, 4], [78.9000, 4], [295714011.3000, 4]], 
  ["2014-04-11 11:30:00", "2014-04-11 11:39:59", [78.9000, 4], [79.1300, 4], [78.8800, 4], [79.0000, 4], [343676453.9000, 4]], 
  ["2014-04-11 11:40:00", "2014-04-11 11:49:59", [79.0200, 4], [79.3500, 4], [78.8900, 4], [79.1800, 4], [244159879.7000, 4]], 
  ["2014-04-11 11:50:00", "2014-04-11 11:59:59", [79.2000, 4], [79.4200, 4], [79.0100, 4], [79.2400, 4], [358023641.9000, 4]], 
  ["2014-04-11 12:00:00", "2014-04-11 12:03:56", [79.2500, 4], [79.5300, 4], [79.2500, 4], [79.4500, 4], [362459570.3000, 4]]]